3 Rの基本的な使用方法 | エコノミストのためのR
…
df_1[[2, 2]]

## [1] 7

3.7.3 その他のデータフレームの機能

df_2 <- tibble(
  letters = LETTERS,
  numbers = 1:26
)

df_2

## # A tibble: 26 × 2
##    letters numbers
##    <chr>     <int>
##  1 A             1
##  2 B             2
##  3 C             3
##  4 D             4
##  5 E             5
##  6 F             6
##  7 G             7
##  8 H             8
##  9 I             9
## 10 J            10
## # … with 16 more rows
…
具体的には、データフレームの行をフィルタするdplyr::filter()関数の中でstr_detect()関数を使用して、検出条件に合致するデータを抽出します。なお、データフレームの操作に関する詳細は、第4章「tidyverseによるデータ操作」を参照してください。

ここでは、都道府県名の変数をもつデータフレームをサンプルデータとして作成し、str_detect()関数を用いてデータの抽出を行います。

# サンプルデータを作成
data_pref_names <- tibble::tibble(
  pref_index = 1:47,
  pref_name = c("北海道", "青森県", "岩手県", "宮城県", "秋田県", "山形県", "福島県", "茨城県", "栃木県", "群馬県", "埼玉県", "千葉県", "東京都", "神奈川県", "新潟県", "富山県", "石川県", "福井県", "山梨県", "長野県", "岐阜県", "静岡県", "愛知県", "三重県", "滋賀県", "京都府", "大阪府", "兵庫県", "奈良県", "和歌山県", "鳥取県", "島根県", "岡山県", "広島県", "山口県", "徳島県", "香川県", "愛媛県", "高知県", "福岡県", "佐賀県", "長崎県", "熊本県", "大分県", "宮崎県", "鹿児島県", "沖縄県")
)

# 単一文字列を検出
data_pref_names %>% 
  dplyr::filter(str_detect(string = pref_name, pattern = "県"))

## # A tibble: 43 × 2
##    pref_index pref_name
##         <int> <chr>    
##  1          2 青森県   
##  2          3 岩手県   
##  3          4 宮城県   
##  4          5 秋田県   
##  5          6 山形県   
##  6          7 福島県   
##  7          8 茨城県   
##  8          9 栃木県   
##  9         10 群馬県   
## 10         11 埼玉県   
## # … with 33 more rows
…
## Rows: 30 Columns: 4
## ── Column specification ────────────────────────────────────────────────────────────────────────────────────────────────────────────────
## Delimiter: ","
## chr (1): 日付
## dbl (2): 変数1, 変数2
## 
## ℹ Use `spec()` to retrieve the full column specification for this data.
## ℹ Specify the column types or set `show_col_types = FALSE` to quiet this message.

data

## # A tibble: 30 × 4
##    file_path                   日付      変数1 変数2
##    <chr>                       <chr>     <dbl> <dbl>
##  1 data_read/csv_row/dfr_1.csv 2000/1/1  0.945 0.927
##  2 data_read/csv_row/dfr_1.csv 2000/1/2  0.208 0.942
##  3 data_read/csv_row/dfr_1.csv 2000/1/3  0.386 0.631
##  4 data_read/csv_row/dfr_1.csv 2000/1/4  0.360 0.690
##  5 data_read/csv_row/dfr_1.csv 2000/1/5  0.218 0.411
##  6 data_read/csv_row/dfr_1.csv 2000/1/6  0.630 0.227
##  7 data_read/csv_row/dfr_1.csv 2000/1/7  0.661 0.461
##  8 data_read/csv_row/dfr_1.csv 2000/1/8  0.358 0.214
##  9 data_read/csv_row/dfr_1.csv 2000/1/9  0.175 0.917
## 10 data_read/csv_row/dfr_1.csv 2000/1/10 0.674 0.519
## # … with 20 more rows
…
