5 ggplot2によるグラフ作成 | エコノミストのためのR
…
折れ線グラフは時系列データを可視化する最も基本的なグラフで、geom_line()関数で作成します。

まず、プロット用のデータを作成します。

data_owid_line <- data_owid %>%
  dplyr::select(location, date, new_cases_smoothed) %>% 
  dplyr::filter(location %in% c("Japan", "United Kingdom", "Germany", "France", "Italy"),
                date >= "2022-01-01",
                date <= "2022-12-31"
                ) %>% 
  tidyr::drop_na(everything())

data_owid_line

## # A tibble: 1,825 × 3
##    location date       new_cases_smoothed
##    <chr>    <date>                  <dbl>
##  1 France   2022-01-01             74249.
##  2 France   2022-01-02            162961.
##  3 France   2022-01-03            162961.
##  4 France   2022-01-04            162961.
##  5 France   2022-01-05            162961.
##  6 France   2022-01-06            162961.
##  7 France   2022-01-07            162961.
##  8 France   2022-01-08            162961.
##  9 France   2022-01-09            246602.
## 10 France   2022-01-10            246602.
## # … with 1,815 more rows
…
X軸：日付型変数

Y軸：連続型変数

ステップグラフは折れ線グラフの特殊形です。政策金利のように、段階的に値が変化するデータに適しています。ステップグラフはgeom_step()関数で作成します。

まず、サンプルデータを作成します。ここでは、Our World in Dataのdata_owidデータセットに含まれるStringency Indexのステップグラフを作成します。Stringency Indexは、各国当局が実施する新型コロナウイルス感染対策の厳格度を示す指数であり、段階的に値が変化します。

data_owid_step <- data_owid %>% 
  dplyr::select(location, date, stringency_index) %>% 
  dplyr::filter(location %in% c("Japan", "United Kingdom", "Germany", "France", "Italy"))

data_owid_step

## # A tibble: 5,470 × 3
##    location date       stringency_index
##    <chr>    <date>                <dbl>
##  1 France   2020-01-03                0
##  2 France   2020-01-04                0
##  3 France   2020-01-05                0
##  4 France   2020-01-06                0
##  5 France   2020-01-07                0
##  6 France   2020-01-08                0
##  7 France   2020-01-09                0
##  8 France   2020-01-10                0
##  9 France   2020-01-11                0
## 10 France   2020-01-12                0
## # … with 5,460 more rows
…
面グラフは折れ線グラフの特殊形です。面グラフには2種類あり、折れ線グラフとX軸で挟まれた範囲を塗りつぶすグラフはgeom_area()関数、2つの折れ線グラフで挟まれた範囲を塗りつぶすグラフはgeom_ribbon()関数で作成します。後者は特にリボングラフと呼ばれ、信頼区間の可視化に用いることができます。

まず、プロット用のデータを作成します。

data_owid_line <- data_owid %>%
  dplyr::select(location, date, new_cases_smoothed) %>% 
  dplyr::filter(location %in% c("Japan", "United Kingdom", "Germany", "France", "Italy"),
                date >= "2022-01-01"
                ) %>% 
  tidyr::drop_na(everything())

data_owid_line

## # A tibble: 1,825 × 3
##    location date       new_cases_smoothed
##    <chr>    <date>                  <dbl>
##  1 France   2022-01-01             74249.
##  2 France   2022-01-02            162961.
##  3 France   2022-01-03            162961.
##  4 France   2022-01-04            162961.
##  5 France   2022-01-05            162961.
##  6 France   2022-01-06            162961.
##  7 France   2022-01-07            162961.
##  8 France   2022-01-08            162961.
##  9 France   2022-01-09            246602.
## 10 France   2022-01-10            246602.
## # … with 1,815 more rows
…
5.21 地図ファセット

国別・州別・都道府県別のデータを、地図を模した複合グラフに表示するには、geofacetパッケージのfacet_geo()関数を使用します。

ここでは、日本の県内総生産データを使用します。

data_gdp_pref

## # A tibble: 611 × 5
##    pref_code pref_name  year gdp_nominal gdp_nominal_pchg
##        <dbl> <chr>     <dbl>       <dbl>            <dbl>
##  1         1 北海道     2006    19316568           NA    
##  2         1 北海道     2007    19137599           -0.927
##  3         1 北海道     2008    18457858           -3.55 
##  4         1 北海道     2009    18219113           -1.29 
##  5         1 北海道     2010    18122675           -0.529
##  6         1 北海道     2011    18071493           -0.282
##  7         1 北海道     2012    17923502           -0.819
##  8         1 北海道     2013    18242119            1.78 
##  9         1 北海道     2014    18579766            1.85 
## 10         1 北海道     2015    19128504            2.95 
## # … with 601 more rows
…
