8 時系列データ操作 | エコノミストのためのR
…
年次データ

年次データをas_tsibble()関数でtsibble形式に変換します。周期は1年になります。

# 日付列で昇順に並べ替え
data_tsibble <- data_gdp_pref %>% 
  dplyr::arrange(year)

# key引数にpref_nameを指定してtsibble形式に変換
data_tsibble %<>% 
  tsibble::as_tsibble(index = year, key = pref_name)

data_tsibble

## # A tsibble: 611 x 5 [1Y]
## # Key:       pref_name [47]
##    pref_code pref_name  year gdp_nominal gdp_nominal_pchg
##        <dbl> <chr>     <dbl>       <dbl>            <dbl>
##  1        24 三重県     2006     8391255            NA   
##  2        24 三重県     2007     8586062             2.32
##  3        24 三重県     2008     7858164            -8.48
##  4        24 三重県     2009     7491413            -4.67
##  5        24 三重県     2010     7694240             2.71
##  6        24 三重県     2011     7435912            -3.36
##  7        24 三重県     2012     7626982             2.57
##  8        24 三重県     2013     7919655             3.84
##  9        24 三重県     2014     7671850            -3.13
## 10        24 三重県     2015     7916818             3.19
## # … with 601 more rows
…
四半期データをas_tsibble()関数でtsibble形式に変換します。周期は4四半期になります。

# 日付列で昇順に並べ替え
data_tsibble <- data_gdp_jp %>% 
  dplyr::arrange(日付)

# 日付列をyearquarter型に変換してからtsibble形式に変換
data_tsibble %<>% 
  dplyr::mutate(日付 = 日付 %>% tsibble::yearquarter()) %>% 
  tsibble::as_tsibble(index = 日付)

data_tsibble

## # A tsibble: 113 x 11 [1Q]
##       日付 国内総生産 民間最終…¹ 民間…² 民間企…³ 民間…⁴ 政府最…⁵ 公的…⁶ 公的在…⁷
##      <qtr>      <dbl>      <dbl>  <dbl>    <dbl>  <dbl>    <dbl>  <dbl>    <dbl>
##  1 1994 Q1    446308.    247535. 29812    66259.  4229    71357. 47106.   -542. 
##  2 1994 Q2    443744.    248758. 31118.   66065  -2884.   72244. 48020.    623. 
##  3 1994 Q3    448945     250619. 33628.   65999.  -280.   72789  46303.    806. 
##  4 1994 Q4    447169.    250780  32218.   67029. -1602.   72950. 45589.    853. 
##  5 1995 Q1    452113     252928. 31122.   68648.  2254.   74470. 43642.    -27.7
##  6 1995 Q2    456276.    254884. 30382.   71088   1117.   74611. 45422.    199. 
##  7 1995 Q3    461709.    256356. 29742.   72334.  2106.   75543  48926     173. 
##  8 1995 Q4    462860.    258171. 30431.   73525.  1033.   75789  49134.    235. 
##  9 1996 Q1    466623.    257412. 31806.   73285   1643    76459  51647.    597. 
## 10 1996 Q2    472494.    260510  33278.   75804   2979.   76392. 50920     191. 
## # … with 103 more rows, 2 more variables: 純輸出 <dbl>, 開差 <dbl>, and
## #   abbreviated variable names ¹​民間最終消費支出, ²​民間住宅, ³​民間企業設備,
## #   ⁴​民間在庫変動, ⁵​政府最終消費支出, ⁶​公的固定資本形成, ⁷​公的在庫変動
…
月次データをas_tsibble()関数でtsibble形式に変換します。周期は12カ月になります。

# 日付列で昇順に並べ替え
data_tsibble <- data_labor %>% 
  dplyr::arrange(date)

# date列をyearmonth型に変換してからtsibble形式に変換
data_tsibble %<>%
  dplyr::mutate(date = date %>% tsibble::yearmonth()) %>% 
  tsibble::as_tsibble(index = date)

data_tsibble

## # A tsibble: 277 x 18 [1M]
##        date  総数  農林  建設  製造 情報通信 運輸・郵…¹ 卸・小…² 金融…³ 不動産…⁴
##       <mth> <dbl> <dbl> <dbl> <dbl>    <dbl>      <dbl>    <dbl>  <dbl>    <dbl>
##  1 2002 Jan  6267   224   589  1210      153        331     1131    165       95
##  2 2002 Feb  6248   227   611  1201      156        324     1075    164       96
##  3 2002 Mar  6297   242   628  1238      156        323     1081    161       99
##  4 2002 Apr  6333   278   624  1213      159        315     1121    167       95
##  5 2002 May  6356   307   607  1194      157        322     1134    171       96
##  6 2002 Jun  6373   311   594  1223      159        330     1115    170      108
##  7 2002 Jul  6374   294   622  1199      160        328     1116    180      110
##  8 2002 Aug  6371   288   620  1207      164        326     1085    176      103
##  9 2002 Sep  6353   286   621  1183      171        333     1081    174      100
## 10 2002 Oct  6355   271   642  1176      160        333     1116    172      102
## # … with 267 more rows, 8 more variables: `学術・専門・技術` <dbl>,
## #   `宿泊・飲食` <dbl>, `生活関連・娯楽` <dbl>, 教育 <dbl>, `医療・福祉` <dbl>,
## #   複合サービス <dbl>, その他サービス <dbl>, 公務 <dbl>, and abbreviated
## #   variable names ¹​`運輸・郵便`, ²​`卸・小売`, ³​`金融・保険`,
## #   ⁴​`不動産・物品賃貸`
…
# 日付列で昇順に並べ替え
data_tsibble %<>% 
  dplyr::arrange(date)

# 重複行を削除してtsibble形式に変換
data_tsibble %<>% 
  dplyr::mutate(date = date %>% tsibble::yearweek()) %>% 
  dplyr::distinct(location, date) %>% 
  tsibble::as_tsibble(index = date, key = location)

data_tsibble

## # A tsibble: 39,465 x 2 [1W]
## # Key:       location [255]
##    location        date
##    <chr>         <week>
##  1 Afghanistan 2020 W02
##  2 Afghanistan 2020 W03
##  3 Afghanistan 2020 W04
##  4 Afghanistan 2020 W05
##  5 Afghanistan 2020 W06
##  6 Afghanistan 2020 W07
##  7 Afghanistan 2020 W08
##  8 Afghanistan 2020 W09
##  9 Afghanistan 2020 W10
## 10 Afghanistan 2020 W11
## # … with 39,455 more rows
…
日次データをas_tsibble()関数でtsibble形式に変換します。周期は7日になります。

# 日付列で昇順に並べ替え
data_tsibble <- data_owid %>% 
  dplyr::arrange(date)

# 重複行を削除してtsibble形式に変換
data_tsibble %<>% 
  dplyr::distinct(location, date) %>% 
  tsibble::as_tsibble(index = date, key = location)
  
data_tsibble

## # A tsibble: 276,251 x 2 [1D]
## # Key:       location [255]
##    location    date      
##    <chr>       <date>    
##  1 Afghanistan 2020-01-05
##  2 Afghanistan 2020-01-06
##  3 Afghanistan 2020-01-07
##  4 Afghanistan 2020-01-08
##  5 Afghanistan 2020-01-09
##  6 Afghanistan 2020-01-10
##  7 Afghanistan 2020-01-11
##  8 Afghanistan 2020-01-12
##  9 Afghanistan 2020-01-13
## 10 Afghanistan 2020-01-14
## # … with 276,241 more rows
…
data_owid_jp <- data_owid %>% 
  dplyr::select(location, date, new_cases, new_deaths) %>% 
  dplyr::filter(location == "Japan",
                date >= "2022-01-01"
                )

8.6.1 ラグ・リード系列の作成

dplyr::lag()関数とdplyr::leag()関数で、既存の列のラグ・リード系列を作成します。

# 1期ラグの系列を追加
data_owid_jp %>% 
  dplyr::mutate(new_cases_lag = dplyr::lag(new_cases, n = 1)) 

## # A tibble: 365 × 5
##    location date       new_cases new_deaths new_cases_lag
##    <chr>    <date>         <dbl>      <dbl>         <dbl>
##  1 Japan    2022-01-01         0          0            NA
##  2 Japan    2022-01-02      3019          8             0
##  3 Japan    2022-01-03         0          0          3019
##  4 Japan    2022-01-04         0          0             0
##  5 Japan    2022-01-05         0          0             0
##  6 Japan    2022-01-06         0          0             0
##  7 Japan    2022-01-07         0          0             0
##  8 Japan    2022-01-08         0          0             0
##  9 Japan    2022-01-09     30796          8             0
## 10 Japan    2022-01-10         0          0         30796
## # … with 355 more rows

8.6.2 変化率系列の作成

dplyr::lag()関数で、既存の列の変化率系列を作成します。

# 前期比変化率（％表示）の系列を追加
data_owid_jp %>% 
  dplyr::mutate(new_cases_chg = 100 * (new_cases / dplyr::lag(new_cases, n = 1) - 1)) 

## # A tibble: 365 × 5
##    location date       new_cases new_deaths new_cases_chg
##    <chr>    <date>         <dbl>      <dbl>         <dbl>
##  1 Japan    2022-01-01         0          0            NA
##  2 Japan    2022-01-02      3019          8           Inf
##  3 Japan    2022-01-03         0          0          -100
##  4 Japan    2022-01-04         0          0           NaN
##  5 Japan    2022-01-05         0          0           NaN
##  6 Japan    2022-01-06         0          0           NaN
##  7 Japan    2022-01-07         0          0           NaN
##  8 Japan    2022-01-08         0          0           NaN
##  9 Japan    2022-01-09     30796          8           Inf
## 10 Japan    2022-01-10         0          0          -100
## # … with 355 more rows

8.6.3 移動平均系列の作成

zooパッケージのrollmean()関数で、移動平均系列を作成します。

# 後方7日移動平均の系列を追加
data_owid_jp %>% 
  dplyr::mutate(new_cases_7dma = zoo::rollmean(new_cases, # 移動平均を作成するもとの系列名
                                               k = 7, # 移動平均の期間
                                               na.pad = TRUE, # 系列の先端部分で移動平均を計算できない箇所をNAで埋めるか
                                               align = "right") # left：前方移動平均、center：中央移動平均、right：後方移動平均
                )

## # A tibble: 365 × 5
##    location date       new_cases new_deaths new_cases_7dma
##    <chr>    <date>         <dbl>      <dbl>          <dbl>
##  1 Japan    2022-01-01         0          0            NA 
##  2 Japan    2022-01-02      3019          8            NA 
##  3 Japan    2022-01-03         0          0            NA 
##  4 Japan    2022-01-04         0          0            NA 
##  5 Japan    2022-01-05         0          0            NA 
##  6 Japan    2022-01-06         0          0            NA 
##  7 Japan    2022-01-07         0          0           431.
##  8 Japan    2022-01-08         0          0           431.
##  9 Japan    2022-01-09     30796          8          4399.
## 10 Japan    2022-01-10         0          0          4399.
## # … with 355 more rows
…
8.7.1 日次データを週次データに変換

tidyquant::tq_transmute()関数を使用して日次データを週次データに変換すると、月曜～日曜のデータがFUNに指定した関数で集計され、日曜の日付で記録されます。

data_owid_cases_wide %>% 
  tidyquant::tq_transmute(select = -date, mutate_fun = apply.weekly, FUN = mean, na.rm = TRUE)

## # A tibble: 105 × 256
##    date       Afghanistan Africa Albania Algeria Americ…¹ Andorra Angola Angui…²
##    <date>           <dbl>  <dbl>   <dbl>   <dbl>    <dbl>   <dbl>  <dbl>   <dbl>
##  1 2021-01-03       287   54972.   1114.    767.        0   120    153     1    
##  2 2021-01-10       111.  31139.    522.    251.        0    60     78.3   0    
##  3 2021-01-17        70.7 30384.    608.    243.        0    64.6   87     0    
##  4 2021-01-24        87.3 26347.    574.    251.        0    65.9   86     0    
##  5 2021-01-31        61.1 19323.    814.    250.        0    55.1   59.3   0.286
##  6 2021-02-07        44.6 15378.    962.    247.        0    45.9   40     0    
##  7 2021-02-14        22.4 12412.   1108.    237.        0    36.7   38.1   0.143
##  8 2021-02-21        16   11044.   1011.    179.        0    29.9   24.3   0    
##  9 2021-02-28        15.7 10580.   1046.    171.        0    25.3   40.4   0    
## 10 2021-03-07        19   10119     867.    163.        0    24.3   39     0    
## # … with 95 more rows, 247 more variables: `Antigua and Barbuda` <dbl>,
## #   Argentina <dbl>, Armenia <dbl>, Aruba <dbl>, Asia <dbl>, Australia <dbl>,
## #   Austria <dbl>, Azerbaijan <dbl>, Bahamas <dbl>, Bahrain <dbl>,
## #   Bangladesh <dbl>, Barbados <dbl>, Belarus <dbl>, Belgium <dbl>,
## #   Belize <dbl>, Benin <dbl>, Bermuda <dbl>, Bhutan <dbl>, Bolivia <dbl>,
## #   `Bonaire Sint Eustatius and Saba` <dbl>, `Bosnia and Herzegovina` <dbl>,
## #   Botswana <dbl>, Brazil <dbl>, `British Virgin Islands` <dbl>, …

なお、日曜～土曜のデータを集計し日曜の日付で記録したい場合は、rollmean()関数を使用して前方7日移動平均を計算し、日曜の値を抽出します。

data_owid_cases_wide %>%
  dplyr::mutate(across(-date, rollmean, k = 7, na.pad = TRUE, align = "left")) %>% 
  dplyr::filter(lubridate::wday(date) == 1)

## # A tibble: 104 × 256
##    date       Afghanistan Africa Albania Algeria Americ…¹ Andorra Angola Angui…²
##    <date>           <dbl>  <dbl>   <dbl>   <dbl>    <dbl>   <dbl>  <dbl>   <dbl>
##  1 2021-01-03       123   23560.    478.    329.        0    51.4   65.6   0.429
##  2 2021-01-10       111.  31139.    522.    251.        0    60     78.3   0    
##  3 2021-01-17        70.7 30384.    608.    243.        0    64.6   87     0    
##  4 2021-01-24        87.3 26347.    574.    251.        0    65.9   86     0    
##  5 2021-01-31        61.1 19323.    814.    250.        0    55.1   59.3   0.286
##  6 2021-02-07        44.6 15378.    962.    247.        0    45.9   40     0    
##  7 2021-02-14        22.4 12412.   1108.    237.        0    36.7   38.1   0.143
##  8 2021-02-21        16   11044.   1011.    179.        0    29.9   24.3   0    
##  9 2021-02-28        15.7 10580.   1046.    171.        0    25.3   40.4   0    
## 10 2021-03-07        19   10119     867.    163.        0    24.3   39     0    
## # … with 94 more rows, 247 more variables: `Antigua and Barbuda` <dbl>,
## #   Argentina <dbl>, Armenia <dbl>, Aruba <dbl>, Asia <dbl>, Australia <dbl>,
## #   Austria <dbl>, Azerbaijan <dbl>, Bahamas <dbl>, Bahrain <dbl>,
## #   Bangladesh <dbl>, Barbados <dbl>, Belarus <dbl>, Belgium <dbl>,
## #   Belize <dbl>, Benin <dbl>, Bermuda <dbl>, Bhutan <dbl>, Bolivia <dbl>,
## #   `Bonaire Sint Eustatius and Saba` <dbl>, `Bosnia and Herzegovina` <dbl>,
## #   Botswana <dbl>, Brazil <dbl>, `British Virgin Islands` <dbl>, …

8.7.2 日次データを月次データに変換

tidyquant::tq_transmute()関数を使用して日次データを月次データに変換すると、月初～月末のデータがFUNに指定した関数で集計され、月末の日付で記録されます。

data_owid_cases_wide %>% 
  tidyquant::tq_transmute(select = -date, mutate_fun = apply.monthly, FUN = mean, na.rm = TRUE)

## # A tibble: 24 × 256
##    date       Afghanistan Africa Albania Algeria Americ…¹ Andorra Angola Angui…²
##    <date>           <dbl>  <dbl>   <dbl>   <dbl>    <dbl>   <dbl>  <dbl>   <dbl>
##  1 2021-01-31       102.  29525.  676.      299.   0        67.1    84.9  0.161 
##  2 2021-02-28        24.7 12354. 1031.      208.   0        34.4    35.7  0.0357
##  3 2021-03-31        18.7  9583.  580.      122.   0        31.0    40.3  0.161 
##  4 2021-04-30        85.0 10951.  235.      133.   0        40.5   115.   1.17  
##  5 2021-05-31       384.  10557.   65       249.   0        21.6   280.   1.65  
##  6 2021-06-30      1449.  19019.    7.37    322.   0         6.3   145.   0     
##  7 2021-07-31       956.  34373.   10.4     734.   0        19.9   103.   0.129 
##  8 2021-08-31       296.  42434.  334.     1090.   0        17     172.   2.61  
##  9 2021-09-30        62.2 17623.  784.      263.   0.0333    4.73  257.   5.67  
## 10 2021-10-31        38.4  7935.  569.      122.   0.0968   11.3   309   17.0   
## # … with 14 more rows, 247 more variables: `Antigua and Barbuda` <dbl>,
## #   Argentina <dbl>, Armenia <dbl>, Aruba <dbl>, Asia <dbl>, Australia <dbl>,
## #   Austria <dbl>, Azerbaijan <dbl>, Bahamas <dbl>, Bahrain <dbl>,
## #   Bangladesh <dbl>, Barbados <dbl>, Belarus <dbl>, Belgium <dbl>,
## #   Belize <dbl>, Benin <dbl>, Bermuda <dbl>, Bhutan <dbl>, Bolivia <dbl>,
## #   `Bonaire Sint Eustatius and Saba` <dbl>, `Bosnia and Herzegovina` <dbl>,
## #   Botswana <dbl>, Brazil <dbl>, `British Virgin Islands` <dbl>, …
…
# 時系列インデックスtimeを追加
data %<>% 
  dplyr::mutate(time = seq_along(日付))

# データの内容を確認
data

## # A tibble: 38 × 4
##     日付 名目年率 実質年率  time
##    <dbl>    <dbl>    <dbl> <int>
##  1  1980  250636.  260625.     1
##  2  1981  268831.  271596      2
##  3  1982  282582   280592.     3
##  4  1983  295304.  290478.     4
##  5  1984  313145.  303555.     5
##  6  1985  333686   319441.     6
##  7  1986  350345.  330068.     7
##  8  1987  366339.  345682.     8
##  9  1988  393641.  369137.     9
## 10  1989  421469.  387070.    10
## # … with 28 more rows
ここでは、実質GDPの自然対数に100を掛けた値について線形トレンドを推定します。この操作により、時系列インデックス\(t\)の係数\(\delta\)の推定値は実質GDPのトレンド成長率（％表示）を示すことになります。詳細は、西山 他（2019）P.532を参照してください。

# 実質年率データを対数変換し100を掛けた系列を計算
data_lm <- data %>% 
  dplyr::mutate(ln_real = 100 * log(実質年率))

# 推定期間として1991年から2017年を指定
data_lm %<>% 
  dplyr::filter(日付 >= 1991,
                日付 <= 2017
                )

data_lm

## # A tibble: 27 × 5
##     日付 名目年率 実質年率  time ln_real
##    <dbl>    <dbl>    <dbl> <int>   <dbl>
##  1  1991  482845.  419883     12   1295.
##  2  1992  495056.  423444.    13   1296.
##  3  1993  495291   421251.    14   1295.
##  4  1994  501538.  425434.    15   1296.
##  5  1995  512542.  437100.    16   1299.
##  6  1996  525807.  450650.    17   1302.
##  7  1997  534142.  455499.    18   1303.
##  8  1998  527877.  450360.    19   1302.
##  9  1999  519652.  449225.    20   1302.
## 10  2000  526706   461712.    21   1304.
## # … with 17 more rows
…
# 時系列インデックスtimeを追加
data %<>% 
  dplyr::mutate(time = seq_along(日付))

# データの内容を確認
data

## # A tibble: 38 × 4
##     日付 名目年率 実質年率  time
##    <dbl>    <dbl>    <dbl> <int>
##  1  1980  250636.  260625.     1
##  2  1981  268831.  271596      2
##  3  1982  282582   280592.     3
##  4  1983  295304.  290478.     4
##  5  1984  313145.  303555.     5
##  6  1985  333686   319441.     6
##  7  1986  350345.  330068.     7
##  8  1987  366339.  345682.     8
##  9  1988  393641.  369137.     9
## 10  1989  421469.  387070.    10
## # … with 28 more rows

# 実質年率データを対数変換し100を掛けた系列を計算
data_lm <- data %>% 
  dplyr::mutate(ln_real = 100 * log(実質年率))

# 1990年以前に0、1991年以降に1をとるダミー変数dummyを作成
data_lm %<>% 
  dplyr::mutate(dummy = if_else(日付 >= 1991, 1, 0))

data_lm

## # A tibble: 38 × 6
##     日付 名目年率 実質年率  time ln_real dummy
##    <dbl>    <dbl>    <dbl> <int>   <dbl> <dbl>
##  1  1980  250636.  260625.     1   1247.     0
##  2  1981  268831.  271596      2   1251.     0
##  3  1982  282582   280592.     3   1254.     0
##  4  1983  295304.  290478.     4   1258.     0
##  5  1984  313145.  303555.     5   1262.     0
##  6  1985  333686   319441.     6   1267.     0
##  7  1986  350345.  330068.     7   1271.     0
##  8  1987  366339.  345682.     8   1275.     0
##  9  1988  393641.  369137.     9   1282.     0
## 10  1989  421469.  387070.    10   1287.     0
## # … with 28 more rows
…
推定したトレンド系列は、推定結果を格納したオブジェクトにfitted.valuesの名称で格納されています。

data %>%
  dplyr::mutate(unemp_fitted = result$fitted.values)

## # A tibble: 323 × 4
##    date       unemp  time unemp_fitted
##    <date>     <dbl> <int>        <dbl>
##  1 1990-01-01  7413     1        7055.
##  2 1990-02-01  7296     2        7139.
##  3 1990-03-01  6852     3        7224.
##  4 1990-04-01  6620     4        7308.
##  5 1990-05-01  6533     5        7392.
##  6 1990-06-01  6884     6        7476.
##  7 1990-07-01  7137     7        7559.
##  8 1990-08-01  7008     8        7642.
##  9 1990-09-01  7003     9        7724.
## 10 1990-10-01  6892    10        7806.
## # … with 313 more rows
…
# 時系列インデックスtimeを追加
data %<>% 
  dplyr::mutate(time = seq_along(日付))

# 実質年率データを対数変換し100を掛けた系列を計算
data_lm <- data %>% 
  dplyr::mutate(ln_real = 100 * log(実質年率))

# データの内容を確認
data_lm

## # A tibble: 38 × 5
##     日付 名目年率 実質年率  time ln_real
##    <dbl>    <dbl>    <dbl> <int>   <dbl>
##  1  1980  250636.  260625.     1   1247.
##  2  1981  268831.  271596      2   1251.
##  3  1982  282582   280592.     3   1254.
##  4  1983  295304.  290478.     4   1258.
##  5  1984  313145.  303555.     5   1262.
##  6  1985  333686   319441.     6   1267.
##  7  1986  350345.  330068.     7   1271.
##  8  1987  366339.  345682.     8   1275.
##  9  1988  393641.  369137.     9   1282.
## 10  1989  421469.  387070.    10   1287.
## # … with 28 more rows
…
# 時系列インデックスtimeを追加
data %<>% 
  dplyr::mutate(time = seq_along(日付))

# 実質年率データを対数変換し100を掛けた系列を計算
data_lm <- data %>% 
  dplyr::mutate(ln_real = 100 * log(実質年率))

# データの内容を確認
data_lm

## # A tibble: 38 × 5
##     日付 名目年率 実質年率  time ln_real
##    <dbl>    <dbl>    <dbl> <int>   <dbl>
##  1  1980  250636.  260625.     1   1247.
##  2  1981  268831.  271596      2   1251.
##  3  1982  282582   280592.     3   1254.
##  4  1983  295304.  290478.     4   1258.
##  5  1984  313145.  303555.     5   1262.
##  6  1985  333686   319441.     6   1267.
##  7  1986  350345.  330068.     7   1271.
##  8  1987  366339.  345682.     8   1275.
##  9  1988  393641.  369137.     9   1282.
## 10  1989  421469.  387070.    10   1287.
## # … with 28 more rows
…
