2 Rの基本的な使用方法 | エコノミストのためのRコード
…
df_1[[2, 2]]

## [1] 7

その他のデータフレームの機能

df_2 <- tibble(
  letters = LETTERS,
  numbers = 1:26
)

df_2

## # A tibble: 26 x 2
##    letters numbers
##    <chr>     <int>
##  1 A             1
##  2 B             2
##  3 C             3
##  4 D             4
##  5 E             5
##  6 F             6
##  7 G             7
##  8 H             8
##  9 I             9
## 10 J            10
## # ... with 16 more rows
…
