1 Rの設定 | エコノミストのためのR
…
gasoline

fpp2パッケージに含まれるgasolineデータセットは、1991年2月2日から2017年１月20日までの米国ガソリン生産量（単位：百万バレル／日）の週次データです。データ形式はts型です。

iris

datasetsパッケージに含まれるirisデータセットは、データ分析で良く使用される有名なデータで、3種類のアヤメの萼（がく）と花弁の長さ・幅のデータを格納しています。データ型はdata.frame形式です。

iris_tbl <- as.tibble(iris)
iris_tbl

## # A tibble: 150 x 5
##    Sepal.Length Sepal.Width Petal.Length Petal.Width Species
##           <dbl>       <dbl>        <dbl>       <dbl> <fct>  
##  1          5.1         3.5          1.4         0.2 setosa 
##  2          4.9         3            1.4         0.2 setosa 
##  3          4.7         3.2          1.3         0.2 setosa 
##  4          4.6         3.1          1.5         0.2 setosa 
##  5          5           3.6          1.4         0.2 setosa 
##  6          5.4         3.9          1.7         0.4 setosa 
##  7          4.6         3.4          1.4         0.3 setosa 
##  8          5           3.4          1.5         0.2 setosa 
##  9          4.4         2.9          1.4         0.2 setosa 
## 10          4.9         3.1          1.5         0.1 setosa 
## # ... with 140 more rows
…
mpg

ggplot2パッケージに含まれるmpgデータセットは、米国で1999～2008年に発売された38車種の燃費関連データです。自動車メーカー名、モデル名、排気量、都市部と高速道路の燃費などのデータが格納されています。データ型はtibble形式です。

データ出所リンク

mpg

## # A tibble: 234 x 11
##    manufacturer model      displ  year   cyl trans drv     cty   hwy fl    class
##    <chr>        <chr>      <dbl> <int> <int> <chr> <chr> <int> <int> <chr> <chr>
##  1 audi         a4           1.8  1999     4 auto~ f        18    29 p     comp~
##  2 audi         a4           1.8  1999     4 manu~ f        21    29 p     comp~
##  3 audi         a4           2    2008     4 manu~ f        20    31 p     comp~
##  4 audi         a4           2    2008     4 auto~ f        21    30 p     comp~
##  5 audi         a4           2.8  1999     6 auto~ f        16    26 p     comp~
##  6 audi         a4           2.8  1999     6 manu~ f        18    26 p     comp~
##  7 audi         a4           3.1  2008     6 auto~ f        18    27 p     comp~
##  8 audi         a4 quattro   1.8  1999     4 manu~ 4        18    26 p     comp~
##  9 audi         a4 quattro   1.8  1999     4 auto~ 4        16    25 p     comp~
## 10 audi         a4 quattro   2    2008     4 manu~ 4        20    28 p     comp~
## # ... with 224 more rows

diamonds

ggplot2パッケージに含まれるdiamondsデータセットは、約54,000個のダイヤモンドの価格、カラット、色、大きさなどの情報を格納しています。データ型はtibble形式です。

diamonds

## # A tibble: 53,940 x 10
##    carat cut       color clarity depth table price     x     y     z
##    <dbl> <ord>     <ord> <ord>   <dbl> <dbl> <int> <dbl> <dbl> <dbl>
##  1  0.23 Ideal     E     SI2      61.5    55   326  3.95  3.98  2.43
##  2  0.21 Premium   E     SI1      59.8    61   326  3.89  3.84  2.31
##  3  0.23 Good      E     VS1      56.9    65   327  4.05  4.07  2.31
##  4  0.29 Premium   I     VS2      62.4    58   334  4.2   4.23  2.63
##  5  0.31 Good      J     SI2      63.3    58   335  4.34  4.35  2.75
##  6  0.24 Very Good J     VVS2     62.8    57   336  3.94  3.96  2.48
##  7  0.24 Very Good I     VVS1     62.3    57   336  3.95  3.98  2.47
##  8  0.26 Very Good H     SI1      61.9    55   337  4.07  4.11  2.53
##  9  0.22 Fair      E     VS2      65.1    61   337  3.87  3.78  2.49
## 10  0.23 Very Good H     VS1      59.4    61   338  4     4.05  2.39
## # ... with 53,930 more rows

economics

ggplot2パッケージに含まれるeconomicsデータセットは、米国の消費・雇用関連の時系列データで、日付（date）、個人消費支出（pce）、人口（pop）、個人貯蓄率（psavert）、失業期間の中央値（uempmed）、失業者数（unemploy）のデータを格納しています。データ型はtibble形式です。

economics

## # A tibble: 574 x 6
##    date         pce    pop psavert uempmed unemploy
##    <date>     <dbl>  <dbl>   <dbl>   <dbl>    <dbl>
##  1 1967-07-01  507. 198712    12.6     4.5     2944
##  2 1967-08-01  510. 198911    12.6     4.7     2945
##  3 1967-09-01  516. 199113    11.9     4.6     2958
##  4 1967-10-01  512. 199311    12.9     4.9     3143
##  5 1967-11-01  517. 199498    12.8     4.7     3066
##  6 1967-12-01  525. 199657    11.8     4.8     3018
##  7 1968-01-01  531. 199808    11.7     5.1     2878
##  8 1968-02-01  534. 199920    12.3     4.5     3001
##  9 1968-03-01  544. 200056    11.7     4.1     2877
## 10 1968-04-01  544  200208    12.3     4.6     2709
## # ... with 564 more rows
…
# 使用するデータを絞り込み
data_owid %<>% 
  dplyr::select(continent, location, date, 
                total_cases, new_cases, new_cases_smoothed, total_deaths, new_deaths, 
                total_cases_per_million, new_cases_per_million, total_deaths_per_million, new_deaths_per_million,
                people_fully_vaccinated,
                stringency_index) #%>% 
  #dplyr::filter(location %in% c("Japan", "United States", "United Kingdom", "Germany", "France", "Italy"))

# データをコンソールに出力
data_owid

## # A tibble: 197,003 x 14
##    continent location    date       total_cases new_cases new_cases_smoothed
##    <chr>     <chr>       <date>           <dbl>     <dbl>              <dbl>
##  1 Asia      Afghanistan 2020-02-24           5         5             NA    
##  2 Asia      Afghanistan 2020-02-25           5         0             NA    
##  3 Asia      Afghanistan 2020-02-26           5         0             NA    
##  4 Asia      Afghanistan 2020-02-27           5         0             NA    
##  5 Asia      Afghanistan 2020-02-28           5         0             NA    
##  6 Asia      Afghanistan 2020-02-29           5         0              0.714
##  7 Asia      Afghanistan 2020-03-01           5         0              0.714
##  8 Asia      Afghanistan 2020-03-02           5         0              0    
##  9 Asia      Afghanistan 2020-03-03           5         0              0    
## 10 Asia      Afghanistan 2020-03-04           5         0              0    
## # ... with 196,993 more rows, and 8 more variables: total_deaths <dbl>,
## #   new_deaths <dbl>, total_cases_per_million <dbl>,
## #   new_cases_per_million <dbl>, total_deaths_per_million <dbl>,
## #   new_deaths_per_million <dbl>, people_fully_vaccinated <dbl>,
## #   stringency_index <dbl>
…
# 日付列を追加
data_labor %<>% 
  dplyr::mutate(date = seq(from = as.Date("2002-01-01"), to = as.Date("2002-01-01") + months(dim(data_labor)[1] - 1), by = "1 month"),
                .before = "総数")

# tibble形式に変換
data_labor %<>% tibble::as_tibble()

# データをコンソールに出力
data_labor

## # A tibble: 244 x 18
##    date        総数  農林  建設  製造 情報通信 `運輸・郵便` `卸・小売`
##    <date>     <dbl> <dbl> <dbl> <dbl>    <dbl>        <dbl>      <dbl>
##  1 2002-01-01  6267   224   589  1210      153          331       1131
##  2 2002-02-01  6248   227   611  1201      156          324       1075
##  3 2002-03-01  6297   242   628  1238      156          323       1081
##  4 2002-04-01  6333   278   624  1213      159          315       1121
##  5 2002-05-01  6356   307   607  1194      157          322       1134
##  6 2002-06-01  6373   311   594  1223      159          330       1115
##  7 2002-07-01  6374   294   622  1199      160          328       1116
##  8 2002-08-01  6371   288   620  1207      164          326       1085
##  9 2002-09-01  6353   286   621  1183      171          333       1081
## 10 2002-10-01  6355   271   642  1176      160          333       1116
## # ... with 234 more rows, and 10 more variables: `金融・保険` <dbl>,
## #   `不動産・物品賃貸` <dbl>, `学術・専門・技術` <dbl>, `宿泊・飲食` <dbl>,
## #   `生活関連・娯楽` <dbl>, 教育 <dbl>, `医療・福祉` <dbl>, 複合サービス <dbl>,
## #   その他サービス <dbl>, 公務 <dbl>
…
data_gdp_pref

## # A tibble: 611 x 5
##    pref_code pref_name  year gdp_nominal gdp_nominal_pchg
##        <dbl> <chr>     <dbl>       <dbl>            <dbl>
##  1         1 北海道     2006    19316568           NA    
##  2         1 北海道     2007    19137599           -0.927
##  3         1 北海道     2008    18457858           -3.55 
##  4         1 北海道     2009    18219113           -1.29 
##  5         1 北海道     2010    18122675           -0.529
##  6         1 北海道     2011    18071493           -0.282
##  7         1 北海道     2012    17923502           -0.819
##  8         1 北海道     2013    18242119            1.78 
##  9         1 北海道     2014    18579766            1.85 
## 10         1 北海道     2015    19128504            2.95 
## # ... with 601 more rows
…
