3 tidyverseによるデータ操作 | エコノミストのためのR
…
tidyverseでは、magrittrパッケージの機能の一つであるパイプ%>%が多用されます。パイプは、データに対して適用した関数の結果を、次の関数へと受け渡すものです。パイプを連続して使用することで、処理の途中の結果をいちいちオブジェクトに代入することなく、一括して複数の処理を行うことができます。

このコードは、mpgデータセットに対する複数の関数の処理をパイプでつなげたものです。

# mpgデータセットからmanufacturer列とcty列を選択し、manufacturer列でフィルタしたうえで、
# cty列を10倍し、結果をresultオブジェクトに保存する例
result <- mpg %>% 
  dplyr::select(manufacturer, cty) %>% 
  dplyr::filter(manufacturer == "toyota") %>% 
  dplyr::mutate(cty_10 = cty * 10)

print(result)

## # A tibble: 34 x 3
##    manufacturer   cty cty_10
##    <chr>        <int>  <dbl>
##  1 toyota          15    150
##  2 toyota          16    160
##  3 toyota          15    150
##  4 toyota          15    150
##  5 toyota          16    160
##  6 toyota          14    140
##  7 toyota          21    210
##  8 toyota          21    210
##  9 toyota          21    210
## 10 toyota          21    210
## # ... with 24 more rows

3.3 列の選択

データセットから列（変数）を選択するには、dplyr::select()関数を使用します。

列名で選択

data_owid %>% 
  dplyr::select(location, date, new_cases)

## # A tibble: 197,003 x 3
##    location    date       new_cases
##    <chr>       <date>         <dbl>
##  1 Afghanistan 2020-02-24         5
##  2 Afghanistan 2020-02-25         0
##  3 Afghanistan 2020-02-26         0
##  4 Afghanistan 2020-02-27         0
##  5 Afghanistan 2020-02-28         0
##  6 Afghanistan 2020-02-29         0
##  7 Afghanistan 2020-03-01         0
##  8 Afghanistan 2020-03-02         0
##  9 Afghanistan 2020-03-03         0
## 10 Afghanistan 2020-03-04         0
## # ... with 196,993 more rows

列名を格納したベクトルで選択

cols <- c("location", "date", "new_cases")
data_owid %>% 
  dplyr::select(cols) 

## Note: Using an external vector in selections is ambiguous.
## i Use `all_of(cols)` instead of `cols` to silence this message.
## i See <https://tidyselect.r-lib.org/reference/faq-external-vector.html>.
## This message is displayed once per session.

## # A tibble: 197,003 x 3
##    location    date       new_cases
##    <chr>       <date>         <dbl>
##  1 Afghanistan 2020-02-24         5
##  2 Afghanistan 2020-02-25         0
##  3 Afghanistan 2020-02-26         0
##  4 Afghanistan 2020-02-27         0
##  5 Afghanistan 2020-02-28         0
##  6 Afghanistan 2020-02-29         0
##  7 Afghanistan 2020-03-01         0
##  8 Afghanistan 2020-03-02         0
##  9 Afghanistan 2020-03-03         0
## 10 Afghanistan 2020-03-04         0
## # ... with 196,993 more rows

列を非選択（削除）

data_owid %>% 
  dplyr::select(-location) 

## # A tibble: 197,003 x 13
##    continent date       total_cases new_cases new_cases_smoothed total_deaths
##    <chr>     <date>           <dbl>     <dbl>              <dbl>        <dbl>
##  1 Asia      2020-02-24           5         5             NA               NA
##  2 Asia      2020-02-25           5         0             NA               NA
##  3 Asia      2020-02-26           5         0             NA               NA
##  4 Asia      2020-02-27           5         0             NA               NA
##  5 Asia      2020-02-28           5         0             NA               NA
##  6 Asia      2020-02-29           5         0              0.714           NA
##  7 Asia      2020-03-01           5         0              0.714           NA
##  8 Asia      2020-03-02           5         0              0               NA
##  9 Asia      2020-03-03           5         0              0               NA
## 10 Asia      2020-03-04           5         0              0               NA
## # ... with 196,993 more rows, and 7 more variables: new_deaths <dbl>,
## #   total_cases_per_million <dbl>, new_cases_per_million <dbl>,
## #   total_deaths_per_million <dbl>, new_deaths_per_million <dbl>,
## #   people_fully_vaccinated <dbl>, stringency_index <dbl>

列名に特定の文字列を含む列を選択

data_owid %>% 
  dplyr::select(location, date, contains("cases"))

## # A tibble: 197,003 x 7
##    location   date       total_cases new_cases new_cases_smoot~ total_cases_per~
##    <chr>      <date>           <dbl>     <dbl>            <dbl>            <dbl>
##  1 Afghanist~ 2020-02-24           5         5           NA                0.126
##  2 Afghanist~ 2020-02-25           5         0           NA                0.126
##  3 Afghanist~ 2020-02-26           5         0           NA                0.126
##  4 Afghanist~ 2020-02-27           5         0           NA                0.126
##  5 Afghanist~ 2020-02-28           5         0           NA                0.126
##  6 Afghanist~ 2020-02-29           5         0            0.714            0.126
##  7 Afghanist~ 2020-03-01           5         0            0.714            0.126
##  8 Afghanist~ 2020-03-02           5         0            0                0.126
##  9 Afghanist~ 2020-03-03           5         0            0                0.126
## 10 Afghanist~ 2020-03-04           5         0            0                0.126
## # ... with 196,993 more rows, and 1 more variable: new_cases_per_million <dbl>

列名が特定の文字列から始まる列を選択

data_owid %>% 
  dplyr::select(location, date, starts_with("new_cases")) 

## # A tibble: 197,003 x 5
##    location    date       new_cases new_cases_smoothed new_cases_per_million
##    <chr>       <date>         <dbl>              <dbl>                 <dbl>
##  1 Afghanistan 2020-02-24         5             NA                     0.126
##  2 Afghanistan 2020-02-25         0             NA                     0    
##  3 Afghanistan 2020-02-26         0             NA                     0    
##  4 Afghanistan 2020-02-27         0             NA                     0    
##  5 Afghanistan 2020-02-28         0             NA                     0    
##  6 Afghanistan 2020-02-29         0              0.714                 0    
##  7 Afghanistan 2020-03-01         0              0.714                 0    
##  8 Afghanistan 2020-03-02         0              0                     0    
##  9 Afghanistan 2020-03-03         0              0                     0    
## 10 Afghanistan 2020-03-04         0              0                     0    
## # ... with 196,993 more rows

列名が特定の文字列で終わる列を選択

data_owid %>% 
  dplyr::select(location, date, ends_with(c("cases", "deaths"))) 

## # A tibble: 197,003 x 6
##    location    date       total_cases new_cases total_deaths new_deaths
##    <chr>       <date>           <dbl>     <dbl>        <dbl>      <dbl>
##  1 Afghanistan 2020-02-24           5         5           NA         NA
##  2 Afghanistan 2020-02-25           5         0           NA         NA
##  3 Afghanistan 2020-02-26           5         0           NA         NA
##  4 Afghanistan 2020-02-27           5         0           NA         NA
##  5 Afghanistan 2020-02-28           5         0           NA         NA
##  6 Afghanistan 2020-02-29           5         0           NA         NA
##  7 Afghanistan 2020-03-01           5         0           NA         NA
##  8 Afghanistan 2020-03-02           5         0           NA         NA
##  9 Afghanistan 2020-03-03           5         0           NA         NA
## 10 Afghanistan 2020-03-04           5         0           NA         NA
## # ... with 196,993 more rows

特定の型の列を選択

data_owid %>% 
  dplyr::select(where(is.character) | where(is.Date)) 

## # A tibble: 197,003 x 3
##    continent location    date      
##    <chr>     <chr>       <date>    
##  1 Asia      Afghanistan 2020-02-24
##  2 Asia      Afghanistan 2020-02-25
##  3 Asia      Afghanistan 2020-02-26
##  4 Asia      Afghanistan 2020-02-27
##  5 Asia      Afghanistan 2020-02-28
##  6 Asia      Afghanistan 2020-02-29
##  7 Asia      Afghanistan 2020-03-01
##  8 Asia      Afghanistan 2020-03-02
##  9 Asia      Afghanistan 2020-03-03
## 10 Asia      Afghanistan 2020-03-04
## # ... with 196,993 more rows

3.4 列名の変更

データセットの列名（変数名）を変更するときは、dplyr::rename()関数を使用します。

data_owid %>% 
  dplyr::rename(country = location)

## # A tibble: 197,003 x 14
##    continent country     date       total_cases new_cases new_cases_smoothed
##    <chr>     <chr>       <date>           <dbl>     <dbl>              <dbl>
##  1 Asia      Afghanistan 2020-02-24           5         5             NA    
##  2 Asia      Afghanistan 2020-02-25           5         0             NA    
##  3 Asia      Afghanistan 2020-02-26           5         0             NA    
##  4 Asia      Afghanistan 2020-02-27           5         0             NA    
##  5 Asia      Afghanistan 2020-02-28           5         0             NA    
##  6 Asia      Afghanistan 2020-02-29           5         0              0.714
##  7 Asia      Afghanistan 2020-03-01           5         0              0.714
##  8 Asia      Afghanistan 2020-03-02           5         0              0    
##  9 Asia      Afghanistan 2020-03-03           5         0              0    
## 10 Asia      Afghanistan 2020-03-04           5         0              0    
## # ... with 196,993 more rows, and 8 more variables: total_deaths <dbl>,
## #   new_deaths <dbl>, total_cases_per_million <dbl>,
## #   new_cases_per_million <dbl>, total_deaths_per_million <dbl>,
## #   new_deaths_per_million <dbl>, people_fully_vaccinated <dbl>,
## #   stringency_index <dbl>

3.5 行のフィルタ

データセットの行のフィルタ（特定の条件を満たすデータの抽出）を行うには、dplyr::filter()関数を使用します。

条件に一致する行

data_owid %>% dplyr::filter(location == "Japan")

## # A tibble: 887 x 14
##    continent location date       total_cases new_cases new_cases_smoothed
##    <chr>     <chr>    <date>           <dbl>     <dbl>              <dbl>
##  1 Asia      Japan    2020-01-22           2        NA             NA    
##  2 Asia      Japan    2020-01-23           2         0             NA    
##  3 Asia      Japan    2020-01-24           2         0             NA    
##  4 Asia      Japan    2020-01-25           2         0             NA    
##  5 Asia      Japan    2020-01-26           4         2             NA    
##  6 Asia      Japan    2020-01-27           4         0             NA    
##  7 Asia      Japan    2020-01-28           7         3              0.714
##  8 Asia      Japan    2020-01-29           7         0              0.714
##  9 Asia      Japan    2020-01-30          11         4              1.29 
## 10 Asia      Japan    2020-01-31          15         4              1.86 
## # ... with 877 more rows, and 8 more variables: total_deaths <dbl>,
## #   new_deaths <dbl>, total_cases_per_million <dbl>,
## #   new_cases_per_million <dbl>, total_deaths_per_million <dbl>,
## #   new_deaths_per_million <dbl>, people_fully_vaccinated <dbl>,
## #   stringency_index <dbl>

条件に一致しない行（NOT条件）

NOT条件は!=演算子を使用します。

data_owid %>% dplyr::filter(continent != "Asia")

## # A tibble: 142,997 x 14
##    continent location date       total_cases new_cases new_cases_smoothed
##    <chr>     <chr>    <date>           <dbl>     <dbl>              <dbl>
##  1 Europe    Albania  2020-02-25          NA        NA                 NA
##  2 Europe    Albania  2020-02-26          NA        NA                 NA
##  3 Europe    Albania  2020-02-27          NA        NA                 NA
##  4 Europe    Albania  2020-02-28          NA        NA                 NA
##  5 Europe    Albania  2020-02-29          NA        NA                 NA
##  6 Europe    Albania  2020-03-01          NA        NA                 NA
##  7 Europe    Albania  2020-03-02          NA        NA                 NA
##  8 Europe    Albania  2020-03-03          NA        NA                 NA
##  9 Europe    Albania  2020-03-04          NA        NA                 NA
## 10 Europe    Albania  2020-03-05          NA        NA                 NA
## # ... with 142,987 more rows, and 8 more variables: total_deaths <dbl>,
## #   new_deaths <dbl>, total_cases_per_million <dbl>,
## #   new_cases_per_million <dbl>, total_deaths_per_million <dbl>,
## #   new_deaths_per_million <dbl>, people_fully_vaccinated <dbl>,
## #   stringency_index <dbl>
…
OR条件の否定

%in%演算子によるOR条件を!で否定します。この場合は、日本・米国以外を抽出しています。

data_owid %>% dplyr::filter(!location %in% locations, date == "2021-01-01")

## # A tibble: 226 x 14
##    continent     location      date       total_cases new_cases new_cases_smoot~
##    <chr>         <chr>         <date>           <dbl>     <dbl>            <dbl>
##  1 Asia          Afghanistan   2021-01-01       52513       183          131.   
##  2 <NA>          Africa        2021-01-01     2788203     27749        23359.   
##  3 Europe        Albania       2021-01-01       58316         0          419.   
##  4 Africa        Algeria       2021-01-01       99897       287          351.   
##  5 Europe        Andorra       2021-01-01        8117        68           51.6  
##  6 Africa        Angola        2021-01-01       17568        15           67    
##  7 North America Anguilla      2021-01-01          13         0            0.286
##  8 North America Antigua and ~ 2021-01-01         159         0            0.571
##  9 South America Argentina     2021-01-01     1629594      4080         7863.   
## 10 Asia          Armenia       2021-01-01      159738       329          425    
## # ... with 216 more rows, and 8 more variables: total_deaths <dbl>,
## #   new_deaths <dbl>, total_cases_per_million <dbl>,
## #   new_cases_per_million <dbl>, total_deaths_per_million <dbl>,
## #   new_deaths_per_million <dbl>, people_fully_vaccinated <dbl>,
## #   stringency_index <dbl>

関数による条件指定

data_owid %>% dplyr::filter(date == max(date))

## # A tibble: 229 x 14
##    continent     location      date       total_cases new_cases new_cases_smoot~
##    <chr>         <chr>         <date>           <dbl>     <dbl>            <dbl>
##  1 Asia          Afghanistan   2022-06-26      182149        77            69   
##  2 <NA>          Africa        2022-06-26    12027514      3922          6898.  
##  3 Europe        Albania       2022-06-26      279077       284           238.  
##  4 Africa        Algeria       2022-06-26      266038         8             9   
##  5 Europe        Andorra       2022-06-26       43774        NA            NA   
##  6 Africa        Angola        2022-06-26       99761         0             0   
##  7 North America Anguilla      2022-06-26        3411         0             5.29
##  8 North America Antigua and ~ 2022-06-26        8625         0             6.29
##  9 South America Argentina     2022-06-26     9367172     25680          3669.  
## 10 Asia          Armenia       2022-06-26      423104         0             8.57
## # ... with 219 more rows, and 8 more variables: total_deaths <dbl>,
## #   new_deaths <dbl>, total_cases_per_million <dbl>,
## #   new_cases_per_million <dbl>, total_deaths_per_million <dbl>,
## #   new_deaths_per_million <dbl>, people_fully_vaccinated <dbl>,
## #   stringency_index <dbl>

論理値を返す関数による条件指定

is.na()関数のように倫理値を返す関数は、==演算子がなくてもフィルタ条件として使用することができます。

data_owid %>% dplyr::filter(is.na(new_cases))

## # A tibble: 8,206 x 14
##    continent location    date       total_cases new_cases new_cases_smoothed
##    <chr>     <chr>       <date>           <dbl>     <dbl>              <dbl>
##  1 Asia      Afghanistan 2020-03-20          24        NA                 NA
##  2 Asia      Afghanistan 2022-01-03      158183        NA                 NA
##  3 Europe    Albania     2020-02-25          NA        NA                 NA
##  4 Europe    Albania     2020-02-26          NA        NA                 NA
##  5 Europe    Albania     2020-02-27          NA        NA                 NA
##  6 Europe    Albania     2020-02-28          NA        NA                 NA
##  7 Europe    Albania     2020-02-29          NA        NA                 NA
##  8 Europe    Albania     2020-03-01          NA        NA                 NA
##  9 Europe    Albania     2020-03-02          NA        NA                 NA
## 10 Europe    Albania     2020-03-03          NA        NA                 NA
## # ... with 8,196 more rows, and 8 more variables: total_deaths <dbl>,
## #   new_deaths <dbl>, total_cases_per_million <dbl>,
## #   new_cases_per_million <dbl>, total_deaths_per_million <dbl>,
## #   new_deaths_per_million <dbl>, people_fully_vaccinated <dbl>,
## #   stringency_index <dbl>

3.6 行の並べ替え

データセットの行を並べ替えるには、dplyr::arrange()関数を使用します。

昇順ソート

data_owid %>% 
  dplyr::arrange(new_cases) 

## # A tibble: 197,003 x 14
##    continent location    date       total_cases new_cases new_cases_smoothed
##    <chr>     <chr>       <date>           <dbl>     <dbl>              <dbl>
##  1 Asia      Afghanistan 2020-02-25           5         0             NA    
##  2 Asia      Afghanistan 2020-02-26           5         0             NA    
##  3 Asia      Afghanistan 2020-02-27           5         0             NA    
##  4 Asia      Afghanistan 2020-02-28           5         0             NA    
##  5 Asia      Afghanistan 2020-02-29           5         0              0.714
##  6 Asia      Afghanistan 2020-03-01           5         0              0.714
##  7 Asia      Afghanistan 2020-03-02           5         0              0    
##  8 Asia      Afghanistan 2020-03-03           5         0              0    
##  9 Asia      Afghanistan 2020-03-04           5         0              0    
## 10 Asia      Afghanistan 2020-03-05           5         0              0    
## # ... with 196,993 more rows, and 8 more variables: total_deaths <dbl>,
## #   new_deaths <dbl>, total_cases_per_million <dbl>,
## #   new_cases_per_million <dbl>, total_deaths_per_million <dbl>,
## #   new_deaths_per_million <dbl>, people_fully_vaccinated <dbl>,
## #   stringency_index <dbl>

降順ソート

data_owid %>% 
  dplyr::arrange(-new_cases) 

## # A tibble: 197,003 x 14
##    continent location date       total_cases new_cases new_cases_smoothed
##    <chr>     <chr>    <date>           <dbl>     <dbl>              <dbl>
##  1 <NA>      World    2022-01-19   339424957   4079883           3096548.
##  2 <NA>      World    2022-01-21   346992314   3835509           3249217.
##  3 <NA>      World    2022-01-18   335345074   3760114           3006384.
##  4 <NA>      World    2022-01-27   366703190   3751437           3363769.
##  5 <NA>      World    2022-01-20   343156805   3731848           3174998.
##  6 <NA>      World    2022-01-26   362951753   3655101           3360971.
##  7 <NA>      World    2022-01-25   359296652   3651109           3421654 
##  8 <NA>      World    2022-01-28   370320392   3617202           3332583.
##  9 <NA>      World    2022-01-12   317749122   3448737           2783549.
## 10 <NA>      World    2022-01-24   355645543   3420342           3437226.
## # ... with 196,993 more rows, and 8 more variables: total_deaths <dbl>,
## #   new_deaths <dbl>, total_cases_per_million <dbl>,
## #   new_cases_per_million <dbl>, total_deaths_per_million <dbl>,
## #   new_deaths_per_million <dbl>, people_fully_vaccinated <dbl>,
## #   stringency_index <dbl>
…
