3 tidyverseによるデータベース操作 | エコノミストのためのRコード
…
3.2 tidyverseの基礎

dplyrやtidyrは、もとのデータベースに対して変更を一切加えません。データベースを操作した結果を残しておくためには、オブジェクトに代入する必要があります。代入先をもとのデータベースのオブジェクトにすると、データベースの内容が書き換えられます。

tidyverseではパイプ%>%が多用されます。パイプは、データベースのある処理の結果を次の処理へと受け渡すものです。パイプを連続して使用することで、処理の途中の結果をいちいちオブジェクトに代入することなく、一括して複数の処理を行うことができます。

# mpgデータベースからmanufacturer変数とcty変数を選択し、manufacturer変数でフィルタしたうえで、cty変数を10倍し、結果をresultオブジェクトに保存する例
result <- mpg %>% 
  dplyr::select(manufacturer, cty) %>% 
  dplyr::filter(manufacturer == "toyota") %>% 
  dplyr::mutate(cty_10 = cty * 10)

print(result)

## # A tibble: 34 x 3
##    manufacturer   cty cty_10
##    <chr>        <int>  <dbl>
##  1 toyota          15    150
##  2 toyota          16    160
##  3 toyota          15    150
##  4 toyota          15    150
##  5 toyota          16    160
##  6 toyota          14    140
##  7 toyota          21    210
##  8 toyota          21    210
##  9 toyota          21    210
## 10 toyota          21    210
## # ... with 24 more rows
…
## Rows: 183583 Columns: 67
## -- Column specification --------------------------------------------------------
## Delimiter: ","
## chr   (4): iso_code, continent, location, tests_units
## dbl  (62): total_cases, new_cases, new_cases_smoothed, total_deaths, new_dea...
## date  (1): date
## 
## i Use `spec()` to retrieve the full column specification for this data.
## i Specify the column types or set `show_col_types = FALSE` to quiet this message.

# データをコンソールに出力
print(data_owid)

## # A tibble: 183,583 x 67
##    iso_code continent location date       total_cases new_cases new_cases_smoot~
##    <chr>    <chr>     <chr>    <date>           <dbl>     <dbl>            <dbl>
##  1 AFG      Asia      Afghani~ 2020-02-24           5         5           NA    
##  2 AFG      Asia      Afghani~ 2020-02-25           5         0           NA    
##  3 AFG      Asia      Afghani~ 2020-02-26           5         0           NA    
##  4 AFG      Asia      Afghani~ 2020-02-27           5         0           NA    
##  5 AFG      Asia      Afghani~ 2020-02-28           5         0           NA    
##  6 AFG      Asia      Afghani~ 2020-02-29           5         0            0.714
##  7 AFG      Asia      Afghani~ 2020-03-01           5         0            0.714
##  8 AFG      Asia      Afghani~ 2020-03-02           5         0            0    
##  9 AFG      Asia      Afghani~ 2020-03-03           5         0            0    
## 10 AFG      Asia      Afghani~ 2020-03-04           5         0            0    
## # ... with 183,573 more rows, and 60 more variables: total_deaths <dbl>,
## #   new_deaths <dbl>, new_deaths_smoothed <dbl>, total_cases_per_million <dbl>,
## #   new_cases_per_million <dbl>, new_cases_smoothed_per_million <dbl>,
## #   total_deaths_per_million <dbl>, new_deaths_per_million <dbl>,
## #   new_deaths_smoothed_per_million <dbl>, reproduction_rate <dbl>,
## #   icu_patients <dbl>, icu_patients_per_million <dbl>, hosp_patients <dbl>,
## #   hosp_patients_per_million <dbl>, weekly_icu_admissions <dbl>, ...

# データをR Studioの新規タブで閲覧
View(data_owid)

3.4 列の選択

データベースから列（変数）を選択するには、dplyr::select()関数を使用します。

列名で選択

data_owid %>% 
  dplyr::select(location, date, new_cases)

## # A tibble: 183,583 x 3
##    location    date       new_cases
##    <chr>       <date>         <dbl>
##  1 Afghanistan 2020-02-24         5
##  2 Afghanistan 2020-02-25         0
##  3 Afghanistan 2020-02-26         0
##  4 Afghanistan 2020-02-27         0
##  5 Afghanistan 2020-02-28         0
##  6 Afghanistan 2020-02-29         0
##  7 Afghanistan 2020-03-01         0
##  8 Afghanistan 2020-03-02         0
##  9 Afghanistan 2020-03-03         0
## 10 Afghanistan 2020-03-04         0
## # ... with 183,573 more rows

列名を格納したベクトルで選択

cols <- c("location", "date", "new_cases")
data_owid %>% 
  dplyr::select(cols) 

## Note: Using an external vector in selections is ambiguous.
## i Use `all_of(cols)` instead of `cols` to silence this message.
## i See <https://tidyselect.r-lib.org/reference/faq-external-vector.html>.
## This message is displayed once per session.

## # A tibble: 183,583 x 3
##    location    date       new_cases
##    <chr>       <date>         <dbl>
##  1 Afghanistan 2020-02-24         5
##  2 Afghanistan 2020-02-25         0
##  3 Afghanistan 2020-02-26         0
##  4 Afghanistan 2020-02-27         0
##  5 Afghanistan 2020-02-28         0
##  6 Afghanistan 2020-02-29         0
##  7 Afghanistan 2020-03-01         0
##  8 Afghanistan 2020-03-02         0
##  9 Afghanistan 2020-03-03         0
## 10 Afghanistan 2020-03-04         0
## # ... with 183,573 more rows

列を非選択（削除）

data_owid %>% 
  dplyr::select(-location) 

## # A tibble: 183,583 x 66
##    iso_code continent date       total_cases new_cases new_cases_smoothed
##    <chr>    <chr>     <date>           <dbl>     <dbl>              <dbl>
##  1 AFG      Asia      2020-02-24           5         5             NA    
##  2 AFG      Asia      2020-02-25           5         0             NA    
##  3 AFG      Asia      2020-02-26           5         0             NA    
##  4 AFG      Asia      2020-02-27           5         0             NA    
##  5 AFG      Asia      2020-02-28           5         0             NA    
##  6 AFG      Asia      2020-02-29           5         0              0.714
##  7 AFG      Asia      2020-03-01           5         0              0.714
##  8 AFG      Asia      2020-03-02           5         0              0    
##  9 AFG      Asia      2020-03-03           5         0              0    
## 10 AFG      Asia      2020-03-04           5         0              0    
## # ... with 183,573 more rows, and 60 more variables: total_deaths <dbl>,
## #   new_deaths <dbl>, new_deaths_smoothed <dbl>, total_cases_per_million <dbl>,
## #   new_cases_per_million <dbl>, new_cases_smoothed_per_million <dbl>,
## #   total_deaths_per_million <dbl>, new_deaths_per_million <dbl>,
## #   new_deaths_smoothed_per_million <dbl>, reproduction_rate <dbl>,
## #   icu_patients <dbl>, icu_patients_per_million <dbl>, hosp_patients <dbl>,
## #   hosp_patients_per_million <dbl>, weekly_icu_admissions <dbl>, ...

列名に特定の文字列を含む列を選択

data_owid %>% 
  dplyr::select(location, date, contains("cases"))

## # A tibble: 183,583 x 8
##    location   date       total_cases new_cases new_cases_smoot~ total_cases_per~
##    <chr>      <date>           <dbl>     <dbl>            <dbl>            <dbl>
##  1 Afghanist~ 2020-02-24           5         5           NA                0.126
##  2 Afghanist~ 2020-02-25           5         0           NA                0.126
##  3 Afghanist~ 2020-02-26           5         0           NA                0.126
##  4 Afghanist~ 2020-02-27           5         0           NA                0.126
##  5 Afghanist~ 2020-02-28           5         0           NA                0.126
##  6 Afghanist~ 2020-02-29           5         0            0.714            0.126
##  7 Afghanist~ 2020-03-01           5         0            0.714            0.126
##  8 Afghanist~ 2020-03-02           5         0            0                0.126
##  9 Afghanist~ 2020-03-03           5         0            0                0.126
## 10 Afghanist~ 2020-03-04           5         0            0                0.126
## # ... with 183,573 more rows, and 2 more variables:
## #   new_cases_per_million <dbl>, new_cases_smoothed_per_million <dbl>

列名が特定の文字列から始まる列を選択

data_owid %>% 
  dplyr::select(location, date, starts_with("new_cases")) 

## # A tibble: 183,583 x 6
##    location    date       new_cases new_cases_smoothed new_cases_per_million
##    <chr>       <date>         <dbl>              <dbl>                 <dbl>
##  1 Afghanistan 2020-02-24         5             NA                     0.126
##  2 Afghanistan 2020-02-25         0             NA                     0    
##  3 Afghanistan 2020-02-26         0             NA                     0    
##  4 Afghanistan 2020-02-27         0             NA                     0    
##  5 Afghanistan 2020-02-28         0             NA                     0    
##  6 Afghanistan 2020-02-29         0              0.714                 0    
##  7 Afghanistan 2020-03-01         0              0.714                 0    
##  8 Afghanistan 2020-03-02         0              0                     0    
##  9 Afghanistan 2020-03-03         0              0                     0    
## 10 Afghanistan 2020-03-04         0              0                     0    
## # ... with 183,573 more rows, and 1 more variable:
## #   new_cases_smoothed_per_million <dbl>

列名が特定の文字列で終わる列を選択

data_owid %>% 
  dplyr::select(location, date, ends_with(c("cases", "deaths"))) 

## # A tibble: 183,583 x 6
##    location    date       total_cases new_cases total_deaths new_deaths
##    <chr>       <date>           <dbl>     <dbl>        <dbl>      <dbl>
##  1 Afghanistan 2020-02-24           5         5           NA         NA
##  2 Afghanistan 2020-02-25           5         0           NA         NA
##  3 Afghanistan 2020-02-26           5         0           NA         NA
##  4 Afghanistan 2020-02-27           5         0           NA         NA
##  5 Afghanistan 2020-02-28           5         0           NA         NA
##  6 Afghanistan 2020-02-29           5         0           NA         NA
##  7 Afghanistan 2020-03-01           5         0           NA         NA
##  8 Afghanistan 2020-03-02           5         0           NA         NA
##  9 Afghanistan 2020-03-03           5         0           NA         NA
## 10 Afghanistan 2020-03-04           5         0           NA         NA
## # ... with 183,573 more rows

特定の型の列を選択

data_owid %>% 
  dplyr::select(where(is.character) | where(is.logical)) 

## # A tibble: 183,583 x 4
##    iso_code continent location    tests_units
##    <chr>    <chr>     <chr>       <chr>      
##  1 AFG      Asia      Afghanistan <NA>       
##  2 AFG      Asia      Afghanistan <NA>       
##  3 AFG      Asia      Afghanistan <NA>       
##  4 AFG      Asia      Afghanistan <NA>       
##  5 AFG      Asia      Afghanistan <NA>       
##  6 AFG      Asia      Afghanistan <NA>       
##  7 AFG      Asia      Afghanistan <NA>       
##  8 AFG      Asia      Afghanistan <NA>       
##  9 AFG      Asia      Afghanistan <NA>       
## 10 AFG      Asia      Afghanistan <NA>       
## # ... with 183,573 more rows

3.5 列名の変更

データベースの列名（変数名）を変更するときは、dplyr::rename()関数を使用します。

data_owid %>% 
  dplyr::rename(country = location)

## # A tibble: 183,583 x 67
##    iso_code continent country  date       total_cases new_cases new_cases_smoot~
##    <chr>    <chr>     <chr>    <date>           <dbl>     <dbl>            <dbl>
##  1 AFG      Asia      Afghani~ 2020-02-24           5         5           NA    
##  2 AFG      Asia      Afghani~ 2020-02-25           5         0           NA    
##  3 AFG      Asia      Afghani~ 2020-02-26           5         0           NA    
##  4 AFG      Asia      Afghani~ 2020-02-27           5         0           NA    
##  5 AFG      Asia      Afghani~ 2020-02-28           5         0           NA    
##  6 AFG      Asia      Afghani~ 2020-02-29           5         0            0.714
##  7 AFG      Asia      Afghani~ 2020-03-01           5         0            0.714
##  8 AFG      Asia      Afghani~ 2020-03-02           5         0            0    
##  9 AFG      Asia      Afghani~ 2020-03-03           5         0            0    
## 10 AFG      Asia      Afghani~ 2020-03-04           5         0            0    
## # ... with 183,573 more rows, and 60 more variables: total_deaths <dbl>,
## #   new_deaths <dbl>, new_deaths_smoothed <dbl>, total_cases_per_million <dbl>,
## #   new_cases_per_million <dbl>, new_cases_smoothed_per_million <dbl>,
## #   total_deaths_per_million <dbl>, new_deaths_per_million <dbl>,
## #   new_deaths_smoothed_per_million <dbl>, reproduction_rate <dbl>,
## #   icu_patients <dbl>, icu_patients_per_million <dbl>, hosp_patients <dbl>,
## #   hosp_patients_per_million <dbl>, weekly_icu_admissions <dbl>, ...

3.6 行のフィルタ

データベースの行のフィルタ（特定の条件を満たすデータの抽出）を行うには、dpoyr::filter()関数を使用します。

条件に一致する行

data_owid %>% dplyr::filter(location == "Japan")

## # A tibble: 833 x 67
##    iso_code continent location date       total_cases new_cases new_cases_smoot~
##    <chr>    <chr>     <chr>    <date>           <dbl>     <dbl>            <dbl>
##  1 JPN      Asia      Japan    2020-01-22           2        NA           NA    
##  2 JPN      Asia      Japan    2020-01-23           2         0           NA    
##  3 JPN      Asia      Japan    2020-01-24           2         0           NA    
##  4 JPN      Asia      Japan    2020-01-25           2         0           NA    
##  5 JPN      Asia      Japan    2020-01-26           4         2           NA    
##  6 JPN      Asia      Japan    2020-01-27           4         0           NA    
##  7 JPN      Asia      Japan    2020-01-28           7         3            0.714
##  8 JPN      Asia      Japan    2020-01-29           7         0            0.714
##  9 JPN      Asia      Japan    2020-01-30          11         4            1.29 
## 10 JPN      Asia      Japan    2020-01-31          15         4            1.86 
## # ... with 823 more rows, and 60 more variables: total_deaths <dbl>,
## #   new_deaths <dbl>, new_deaths_smoothed <dbl>, total_cases_per_million <dbl>,
## #   new_cases_per_million <dbl>, new_cases_smoothed_per_million <dbl>,
## #   total_deaths_per_million <dbl>, new_deaths_per_million <dbl>,
## #   new_deaths_smoothed_per_million <dbl>, reproduction_rate <dbl>,
## #   icu_patients <dbl>, icu_patients_per_million <dbl>, hosp_patients <dbl>,
## #   hosp_patients_per_million <dbl>, weekly_icu_admissions <dbl>, ...

条件に一致しない行（NOT条件）

NOT条件は!=演算子を使用します。

data_owid %>% dplyr::filter(continent != "Asia")

## # A tibble: 133,644 x 67
##    iso_code continent location date       total_cases new_cases new_cases_smoot~
##    <chr>    <chr>     <chr>    <date>           <dbl>     <dbl>            <dbl>
##  1 ALB      Europe    Albania  2020-02-25          NA        NA               NA
##  2 ALB      Europe    Albania  2020-02-26          NA        NA               NA
##  3 ALB      Europe    Albania  2020-02-27          NA        NA               NA
##  4 ALB      Europe    Albania  2020-02-28          NA        NA               NA
##  5 ALB      Europe    Albania  2020-02-29          NA        NA               NA
##  6 ALB      Europe    Albania  2020-03-01          NA        NA               NA
##  7 ALB      Europe    Albania  2020-03-02          NA        NA               NA
##  8 ALB      Europe    Albania  2020-03-03          NA        NA               NA
##  9 ALB      Europe    Albania  2020-03-04          NA        NA               NA
## 10 ALB      Europe    Albania  2020-03-05          NA        NA               NA
## # ... with 133,634 more rows, and 60 more variables: total_deaths <dbl>,
## #   new_deaths <dbl>, new_deaths_smoothed <dbl>, total_cases_per_million <dbl>,
## #   new_cases_per_million <dbl>, new_cases_smoothed_per_million <dbl>,
## #   total_deaths_per_million <dbl>, new_deaths_per_million <dbl>,
## #   new_deaths_smoothed_per_million <dbl>, reproduction_rate <dbl>,
## #   icu_patients <dbl>, icu_patients_per_million <dbl>, hosp_patients <dbl>,
## #   hosp_patients_per_million <dbl>, weekly_icu_admissions <dbl>, ...
…
OR条件の否定

%in%演算子によるOR条件を!で否定します。この場合は、日本・米国以外を抽出しています。

data_owid %>% dplyr::filter(!location %in% locations, date == "2021-01-01")

## # A tibble: 225 x 67
##    iso_code continent location date       total_cases new_cases new_cases_smoot~
##    <chr>    <chr>     <chr>    <date>           <dbl>     <dbl>            <dbl>
##  1 AFG      Asia      Afghani~ 2021-01-01       52513       183          131.   
##  2 OWID_AFR <NA>      Africa   2021-01-01     2788203     27749        23359.   
##  3 ALB      Europe    Albania  2021-01-01       58316         0          419.   
##  4 DZA      Africa    Algeria  2021-01-01       99897       287          351.   
##  5 AND      Europe    Andorra  2021-01-01        8117        68           51.6  
##  6 AGO      Africa    Angola   2021-01-01       17568        15           67    
##  7 AIA      North Am~ Anguilla 2021-01-01          13         0            0.286
##  8 ATG      North Am~ Antigua~ 2021-01-01         159         0            0.571
##  9 ARG      South Am~ Argenti~ 2021-01-01     1629594      4080         7863.   
## 10 ARM      Asia      Armenia  2021-01-01      159738       329          425    
## # ... with 215 more rows, and 60 more variables: total_deaths <dbl>,
## #   new_deaths <dbl>, new_deaths_smoothed <dbl>, total_cases_per_million <dbl>,
## #   new_cases_per_million <dbl>, new_cases_smoothed_per_million <dbl>,
## #   total_deaths_per_million <dbl>, new_deaths_per_million <dbl>,
## #   new_deaths_smoothed_per_million <dbl>, reproduction_rate <dbl>,
## #   icu_patients <dbl>, icu_patients_per_million <dbl>, hosp_patients <dbl>,
## #   hosp_patients_per_million <dbl>, weekly_icu_admissions <dbl>, ...

関数による条件指定

data_owid %>% dplyr::filter(date == max(date))

## # A tibble: 229 x 67
##    iso_code continent location date       total_cases new_cases new_cases_smoot~
##    <chr>    <chr>     <chr>    <date>           <dbl>     <dbl>            <dbl>
##  1 AFG      Asia      Afghani~ 2022-05-03      178901         0            18.9 
##  2 OWID_AFR <NA>      Africa   2022-05-03    11687065      4228         13856.  
##  3 ALB      Europe    Albania  2022-05-03      275191        14            47   
##  4 DZA      Africa    Algeria  2022-05-03      265782         0             1.43
##  5 AND      Europe    Andorra  2022-05-03       41349        NA            NA   
##  6 AGO      Africa    Angola   2022-05-03       99287         0             0   
##  7 AIA      North Am~ Anguilla 2022-05-03        2788         0             0   
##  8 ATG      North Am~ Antigua~ 2022-05-03        7626         0             7.86
##  9 ARG      South Am~ Argenti~ 2022-05-03     9083673        NA            NA   
## 10 ARM      Asia      Armenia  2022-05-03      422874         0             5.14
## # ... with 219 more rows, and 60 more variables: total_deaths <dbl>,
## #   new_deaths <dbl>, new_deaths_smoothed <dbl>, total_cases_per_million <dbl>,
## #   new_cases_per_million <dbl>, new_cases_smoothed_per_million <dbl>,
## #   total_deaths_per_million <dbl>, new_deaths_per_million <dbl>,
## #   new_deaths_smoothed_per_million <dbl>, reproduction_rate <dbl>,
## #   icu_patients <dbl>, icu_patients_per_million <dbl>, hosp_patients <dbl>,
## #   hosp_patients_per_million <dbl>, weekly_icu_admissions <dbl>, ...
…
