4 tidyverseによるデータ操作 | エコノミストのためのR
…
tidyverseでは、magrittrパッケージの機能の一つであるパイプ%>%が多用されます。パイプは、データに対して適用した関数の結果を、次の関数へと受け渡すものです。パイプを連続して使用することで、処理の途中の結果をいちいちオブジェクトに代入することなく、一括して複数の処理を行うことができます。

このコードは、mpgデータセットに対する複数の関数の処理をパイプでつなげたものです。

# mpgデータセットからmanufacturer列とcty列を選択し、manufacturer列でフィルタしたうえで、
# cty列を10倍し、結果をresultオブジェクトに保存する例
result <- mpg %>% 
  dplyr::select(manufacturer, cty) %>% 
  dplyr::filter(manufacturer == "toyota") %>% 
  dplyr::mutate(cty_10 = cty * 10)

print(result)

## # A tibble: 34 × 3
##    manufacturer   cty cty_10
##    <chr>        <int>  <dbl>
##  1 toyota          15    150
##  2 toyota          16    160
##  3 toyota          15    150
##  4 toyota          15    150
##  5 toyota          16    160
##  6 toyota          14    140
##  7 toyota          21    210
##  8 toyota          21    210
##  9 toyota          21    210
## 10 toyota          21    210
## # … with 24 more rows

4.3 列の選択

データセットから列（変数）を選択するには、dplyr::select()関数を使用します。

4.3.1 列名で選択

data_owid %>% 
  dplyr::select(location, date, new_cases)

## # A tibble: 344,744 × 3
##    location    date       new_cases
##    <chr>       <date>         <dbl>
##  1 Afghanistan 2020-01-03         0
##  2 Afghanistan 2020-01-04         0
##  3 Afghanistan 2020-01-05         0
##  4 Afghanistan 2020-01-06         0
##  5 Afghanistan 2020-01-07         0
##  6 Afghanistan 2020-01-08         0
##  7 Afghanistan 2020-01-09         0
##  8 Afghanistan 2020-01-10         0
##  9 Afghanistan 2020-01-11         0
## 10 Afghanistan 2020-01-12         0
## # … with 344,734 more rows

4.3.2 列名を格納したベクトルで選択

cols <- c("location", "date", "new_cases")
data_owid %>% 
  dplyr::select(cols) 

## # A tibble: 344,744 × 3
##    location    date       new_cases
##    <chr>       <date>         <dbl>
##  1 Afghanistan 2020-01-03         0
##  2 Afghanistan 2020-01-04         0
##  3 Afghanistan 2020-01-05         0
##  4 Afghanistan 2020-01-06         0
##  5 Afghanistan 2020-01-07         0
##  6 Afghanistan 2020-01-08         0
##  7 Afghanistan 2020-01-09         0
##  8 Afghanistan 2020-01-10         0
##  9 Afghanistan 2020-01-11         0
## 10 Afghanistan 2020-01-12         0
## # … with 344,734 more rows

4.3.3 列を非選択（削除）

data_owid %>% 
  dplyr::select(-location) 

## # A tibble: 344,744 × 13
##    continent date       total_…¹ new_c…² new_c…³ total…⁴ new_d…⁵ total…⁶ new_c…⁷
##    <chr>     <date>        <dbl>   <dbl>   <dbl>   <dbl>   <dbl>   <dbl>   <dbl>
##  1 Asia      2020-01-03       NA       0      NA      NA       0      NA       0
##  2 Asia      2020-01-04       NA       0      NA      NA       0      NA       0
##  3 Asia      2020-01-05       NA       0      NA      NA       0      NA       0
##  4 Asia      2020-01-06       NA       0      NA      NA       0      NA       0
##  5 Asia      2020-01-07       NA       0      NA      NA       0      NA       0
##  6 Asia      2020-01-08       NA       0       0      NA       0      NA       0
##  7 Asia      2020-01-09       NA       0       0      NA       0      NA       0
##  8 Asia      2020-01-10       NA       0       0      NA       0      NA       0
##  9 Asia      2020-01-11       NA       0       0      NA       0      NA       0
## 10 Asia      2020-01-12       NA       0       0      NA       0      NA       0
## # … with 344,734 more rows, 4 more variables: total_deaths_per_million <dbl>,
## #   new_deaths_per_million <dbl>, people_fully_vaccinated <dbl>,
## #   stringency_index <dbl>, and abbreviated variable names ¹​total_cases,
## #   ²​new_cases, ³​new_cases_smoothed, ⁴​total_deaths, ⁵​new_deaths,
## #   ⁶​total_cases_per_million, ⁷​new_cases_per_million

4.3.4 列名に特定の文字列を含む列を選択

data_owid %>% 
  dplyr::select(location, date, contains("cases"))

## # A tibble: 344,744 × 7
##    location    date       total_cases new_cases new_cases_smoo…¹ total…² new_c…³
##    <chr>       <date>           <dbl>     <dbl>            <dbl>   <dbl>   <dbl>
##  1 Afghanistan 2020-01-03          NA         0               NA      NA       0
##  2 Afghanistan 2020-01-04          NA         0               NA      NA       0
##  3 Afghanistan 2020-01-05          NA         0               NA      NA       0
##  4 Afghanistan 2020-01-06          NA         0               NA      NA       0
##  5 Afghanistan 2020-01-07          NA         0               NA      NA       0
##  6 Afghanistan 2020-01-08          NA         0                0      NA       0
##  7 Afghanistan 2020-01-09          NA         0                0      NA       0
##  8 Afghanistan 2020-01-10          NA         0                0      NA       0
##  9 Afghanistan 2020-01-11          NA         0                0      NA       0
## 10 Afghanistan 2020-01-12          NA         0                0      NA       0
## # … with 344,734 more rows, and abbreviated variable names ¹​new_cases_smoothed,
## #   ²​total_cases_per_million, ³​new_cases_per_million

4.3.5 列名が特定の文字列から始まる列を選択

data_owid %>% 
  dplyr::select(location, date, starts_with("new_cases")) 

## # A tibble: 344,744 × 5
##    location    date       new_cases new_cases_smoothed new_cases_per_million
##    <chr>       <date>         <dbl>              <dbl>                 <dbl>
##  1 Afghanistan 2020-01-03         0                 NA                     0
##  2 Afghanistan 2020-01-04         0                 NA                     0
##  3 Afghanistan 2020-01-05         0                 NA                     0
##  4 Afghanistan 2020-01-06         0                 NA                     0
##  5 Afghanistan 2020-01-07         0                 NA                     0
##  6 Afghanistan 2020-01-08         0                  0                     0
##  7 Afghanistan 2020-01-09         0                  0                     0
##  8 Afghanistan 2020-01-10         0                  0                     0
##  9 Afghanistan 2020-01-11         0                  0                     0
## 10 Afghanistan 2020-01-12         0                  0                     0
## # … with 344,734 more rows

4.3.6 列名が特定の文字列で終わる列を選択

data_owid %>% 
  dplyr::select(location, date, ends_with(c("cases", "deaths"))) 

## # A tibble: 344,744 × 6
##    location    date       total_cases new_cases total_deaths new_deaths
##    <chr>       <date>           <dbl>     <dbl>        <dbl>      <dbl>
##  1 Afghanistan 2020-01-03          NA         0           NA          0
##  2 Afghanistan 2020-01-04          NA         0           NA          0
##  3 Afghanistan 2020-01-05          NA         0           NA          0
##  4 Afghanistan 2020-01-06          NA         0           NA          0
##  5 Afghanistan 2020-01-07          NA         0           NA          0
##  6 Afghanistan 2020-01-08          NA         0           NA          0
##  7 Afghanistan 2020-01-09          NA         0           NA          0
##  8 Afghanistan 2020-01-10          NA         0           NA          0
##  9 Afghanistan 2020-01-11          NA         0           NA          0
## 10 Afghanistan 2020-01-12          NA         0           NA          0
## # … with 344,734 more rows

4.3.7 特定の型の列を選択

data_owid %>% 
  dplyr::select(where(is.character) | where(is.Date)) 

## # A tibble: 344,744 × 3
##    continent location    date      
##    <chr>     <chr>       <date>    
##  1 Asia      Afghanistan 2020-01-03
##  2 Asia      Afghanistan 2020-01-04
##  3 Asia      Afghanistan 2020-01-05
##  4 Asia      Afghanistan 2020-01-06
##  5 Asia      Afghanistan 2020-01-07
##  6 Asia      Afghanistan 2020-01-08
##  7 Asia      Afghanistan 2020-01-09
##  8 Asia      Afghanistan 2020-01-10
##  9 Asia      Afghanistan 2020-01-11
## 10 Asia      Afghanistan 2020-01-12
## # … with 344,734 more rows

4.4 列名の変更

データセットの列名（変数名）を変更するときは、dplyr::rename()関数を使用します。

data_owid %>% 
  dplyr::rename(country = location)

## # A tibble: 344,744 × 14
##    continent country  date       total…¹ new_c…² new_c…³ total…⁴ new_d…⁵ total…⁶
##    <chr>     <chr>    <date>       <dbl>   <dbl>   <dbl>   <dbl>   <dbl>   <dbl>
##  1 Asia      Afghani… 2020-01-03      NA       0      NA      NA       0      NA
##  2 Asia      Afghani… 2020-01-04      NA       0      NA      NA       0      NA
##  3 Asia      Afghani… 2020-01-05      NA       0      NA      NA       0      NA
##  4 Asia      Afghani… 2020-01-06      NA       0      NA      NA       0      NA
##  5 Asia      Afghani… 2020-01-07      NA       0      NA      NA       0      NA
##  6 Asia      Afghani… 2020-01-08      NA       0       0      NA       0      NA
##  7 Asia      Afghani… 2020-01-09      NA       0       0      NA       0      NA
##  8 Asia      Afghani… 2020-01-10      NA       0       0      NA       0      NA
##  9 Asia      Afghani… 2020-01-11      NA       0       0      NA       0      NA
## 10 Asia      Afghani… 2020-01-12      NA       0       0      NA       0      NA
## # … with 344,734 more rows, 5 more variables: new_cases_per_million <dbl>,
## #   total_deaths_per_million <dbl>, new_deaths_per_million <dbl>,
## #   people_fully_vaccinated <dbl>, stringency_index <dbl>, and abbreviated
## #   variable names ¹​total_cases, ²​new_cases, ³​new_cases_smoothed,
## #   ⁴​total_deaths, ⁵​new_deaths, ⁶​total_cases_per_million
…
## # A tibble: 5 × 2
##   letters numbers
##   <chr>     <int>
## 1 F             6
## 2 G             7
## 3 H             8
## 4 I             9
## 5 J            10

特定の行を切り捨てて、それ以外の行を取り出すには、dplyr::slice()関数の中でマイナスのインデックスを指定します。

df_2 %>% 
  dplyr::slice(-(6:10))

## # A tibble: 21 × 2
##    letters numbers
##    <chr>     <int>
##  1 A             1
##  2 B             2
##  3 C             3
##  4 D             4
##  5 E             5
##  6 K            11
##  7 L            12
##  8 M            13
##  9 N            14
## 10 O            15
## # … with 11 more rows

4.5.2 サンプリング

dplyr::slice()関数ファミリーであるdplyr::slice_sample()関数を使用すると、データセットからデータをランダムサンプリングすることができます。ここでは、53940サンプルあるdiamondsデータセットからサンプリングを行います。

diamonds

## # A tibble: 53,940 × 10
##    carat cut       color clarity depth table price     x     y     z
##    <dbl> <ord>     <ord> <ord>   <dbl> <dbl> <int> <dbl> <dbl> <dbl>
##  1  0.23 Ideal     E     SI2      61.5    55   326  3.95  3.98  2.43
##  2  0.21 Premium   E     SI1      59.8    61   326  3.89  3.84  2.31
##  3  0.23 Good      E     VS1      56.9    65   327  4.05  4.07  2.31
##  4  0.29 Premium   I     VS2      62.4    58   334  4.2   4.23  2.63
##  5  0.31 Good      J     SI2      63.3    58   335  4.34  4.35  2.75
##  6  0.24 Very Good J     VVS2     62.8    57   336  3.94  3.96  2.48
##  7  0.24 Very Good I     VVS1     62.3    57   336  3.95  3.98  2.47
##  8  0.26 Very Good H     SI1      61.9    55   337  4.07  4.11  2.53
##  9  0.22 Fair      E     VS2      65.1    61   337  3.87  3.78  2.49
## 10  0.23 Very Good H     VS1      59.4    61   338  4     4.05  2.39
## # … with 53,930 more rows

抽出するサンプル数は、dplyr::slice_sample()関数のn引数で指定します。

diamonds %>% 
  dplyr::slice_sample(n = 1000) # サンプル数

## # A tibble: 1,000 × 10
##    carat cut       color clarity depth table price     x     y     z
##    <dbl> <ord>     <ord> <ord>   <dbl> <dbl> <int> <dbl> <dbl> <dbl>
##  1  0.92 Premium   J     SI1      62.9    58  2858  6.22  6.18  3.9 
##  2  1    Premium   F     SI2      61.6    62  4333  6.37  6.3   3.9 
##  3  0.9  Ideal     G     VS1      61.8    56  4931  6.19  6.24  3.84
##  4  1.02 Ideal     I     VS2      61.5    57  4662  6.49  6.45  3.98
##  5  0.23 Very Good E     VVS1     62.1    58   530  3.9   3.93  2.43
##  6  0.59 Ideal     F     SI1      62.3    54  1424  5.37  5.41  3.36
##  7  1    Very Good D     SI2      63.3    56  4704  6.38  6.35  4.03
##  8  1.03 Premium   F     VVS1     59.7    60 10546  6.63  6.57  3.94
##  9  1.1  Very Good I     SI2      62.6    59  4192  6.53  6.57  4.1 
## 10  1.01 Fair      F     SI1      65.9    58  4276  6.16  6.1   4.04
## # … with 990 more rows

抽出するサンプル数を、データの個数ではなく、元データセットの何割、といった形で決める場合は、dplyr::slice_sample()関数のporp引数に割合を指定します。

diamonds %>% 
  dplyr::slice_sample(prop = 0.1) # サンプル割合

## # A tibble: 5,394 × 10
##    carat cut       color clarity depth table price     x     y     z
##    <dbl> <ord>     <ord> <ord>   <dbl> <dbl> <int> <dbl> <dbl> <dbl>
##  1  2.01 Premium   I     VS2      61.1    60 17433  8.06  8.12  4.94
##  2  0.41 Ideal     E     VVS2     61.9    56  1187  4.75  4.78  2.95
##  3  0.74 Premium   G     VS1      62.9    60  2800  5.74  5.68  3.59
##  4  2.01 Very Good J     VS2      60.8    58 12968  8.08  8.16  4.94
##  5  0.9  Premium   I     SI2      62.2    59  2826  6.11  6.07  3.79
##  6  1.04 Premium   I     SI2      61.6    56  3960  6.56  6.49  4.02
##  7  0.41 Ideal     D     VVS2     62.5    57  1105  4.72  4.75  2.96
##  8  1    Ideal     D     SI1      62.7    57  6073  6.34  6.38  3.99
##  9  1.51 Very Good D     VS2      63.2    57 12311  7.27  7.25  4.59
## 10  1.52 Good      F     VS2      57.8    59 12283  7.58  7.5   4.36
## # … with 5,384 more rows

4.6 行のフィルタ

データセットの行のフィルタ（特定の条件を満たすデータの抽出）を行うには、dplyr::filter()関数を使用します。

4.6.1 条件に一致する行

data_owid %>% dplyr::filter(location == "Japan")

## # A tibble: 1,364 × 14
##    continent location date       total…¹ new_c…² new_c…³ total…⁴ new_d…⁵ total…⁶
##    <chr>     <chr>    <date>       <dbl>   <dbl>   <dbl>   <dbl>   <dbl>   <dbl>
##  1 Asia      Japan    2020-01-03      NA       0      NA      NA       0      NA
##  2 Asia      Japan    2020-01-04      NA       0      NA      NA       0      NA
##  3 Asia      Japan    2020-01-05      NA       0      NA      NA       0      NA
##  4 Asia      Japan    2020-01-06      NA       0      NA      NA       0      NA
##  5 Asia      Japan    2020-01-07      NA       0      NA      NA       0      NA
##  6 Asia      Japan    2020-01-08      NA       0       0      NA       0      NA
##  7 Asia      Japan    2020-01-09      NA       0       0      NA       0      NA
##  8 Asia      Japan    2020-01-10      NA       0       0      NA       0      NA
##  9 Asia      Japan    2020-01-11      NA       0       0      NA       0      NA
## 10 Asia      Japan    2020-01-12      NA       0       0      NA       0      NA
## # … with 1,354 more rows, 5 more variables: new_cases_per_million <dbl>,
## #   total_deaths_per_million <dbl>, new_deaths_per_million <dbl>,
## #   people_fully_vaccinated <dbl>, stringency_index <dbl>, and abbreviated
## #   variable names ¹​total_cases, ²​new_cases, ³​new_cases_smoothed,
## #   ⁴​total_deaths, ⁵​new_deaths, ⁶​total_cases_per_million

4.6.2 条件に一致しない行（NOT条件）

NOT条件は!=演算子を使用します。

data_owid %>% dplyr::filter(continent != "Asia")

## # A tibble: 260,125 × 14
##    continent location date       total…¹ new_c…² new_c…³ total…⁴ new_d…⁵ total…⁶
##    <chr>     <chr>    <date>       <dbl>   <dbl>   <dbl>   <dbl>   <dbl>   <dbl>
##  1 Europe    Albania  2020-01-03      NA       0      NA      NA       0      NA
##  2 Europe    Albania  2020-01-04      NA       0      NA      NA       0      NA
##  3 Europe    Albania  2020-01-05      NA       0      NA      NA       0      NA
##  4 Europe    Albania  2020-01-06      NA       0      NA      NA       0      NA
##  5 Europe    Albania  2020-01-07      NA       0      NA      NA       0      NA
##  6 Europe    Albania  2020-01-08      NA       0       0      NA       0      NA
##  7 Europe    Albania  2020-01-09      NA       0       0      NA       0      NA
##  8 Europe    Albania  2020-01-10      NA       0       0      NA       0      NA
##  9 Europe    Albania  2020-01-11      NA       0       0      NA       0      NA
## 10 Europe    Albania  2020-01-12      NA       0       0      NA       0      NA
## # … with 260,115 more rows, 5 more variables: new_cases_per_million <dbl>,
## #   total_deaths_per_million <dbl>, new_deaths_per_million <dbl>,
## #   people_fully_vaccinated <dbl>, stringency_index <dbl>, and abbreviated
## #   variable names ¹​total_cases, ²​new_cases, ³​new_cases_smoothed,
## #   ⁴​total_deaths, ⁵​new_deaths, ⁶​total_cases_per_million
…
4.6.6 OR条件の否定

%in%演算子によるOR条件を!で否定します。この場合は、日本・米国以外を抽出しています。

data_owid %>% dplyr::filter(!location %in% locations, date == "2021-01-01")

## # A tibble: 250 × 14
##    continent  locat…¹ date       total…² new_c…³ new_c…⁴ total…⁵ new_d…⁶ total…⁷
##    <chr>      <chr>   <date>       <dbl>   <dbl>   <dbl>   <dbl>   <dbl>   <dbl>
##  1 Asia       Afghan… 2021-01-01   52513     183 1.31e+2    2201      12   1277.
##  2 <NA>       Africa  2021-01-01 2777642   29790 2.31e+4   65745     693   1947.
##  3 Europe     Albania 2021-01-01   57727     581 4.87e+2    1174       4  20310.
##  4 Africa     Algeria 2021-01-01   99610     299 3.72e+2    2756       5   2218.
##  5 Oceania    Americ… 2021-01-01      NA       0 0            NA       0     NA 
##  6 Europe     Andorra 2021-01-01    8049      66 5   e+1      84       0 100810.
##  7 Africa     Angola  2021-01-01   17553     120 7.49e+1     405       0    493.
##  8 North Ame… Anguil… 2021-01-01      13       0 2.86e-1      NA       0    819.
##  9 North Ame… Antigu… 2021-01-01     159       1 7.14e-1       5       0   1696.
## 10 South Ame… Argent… 2021-01-01 1677741    3422 8.34e+3   48337      66  36865.
## # … with 240 more rows, 5 more variables: new_cases_per_million <dbl>,
## #   total_deaths_per_million <dbl>, new_deaths_per_million <dbl>,
## #   people_fully_vaccinated <dbl>, stringency_index <dbl>, and abbreviated
## #   variable names ¹​location, ²​total_cases, ³​new_cases, ⁴​new_cases_smoothed,
## #   ⁵​total_deaths, ⁶​new_deaths, ⁷​total_cases_per_million

4.6.7 関数による条件指定

data_owid %>% dplyr::filter(date == max(date))

## # A tibble: 246 × 14
##    continent  locat…¹ date       total…² new_c…³ new_c…⁴ total…⁵ new_d…⁶ total…⁷
##    <chr>      <chr>   <date>       <dbl>   <dbl>   <dbl>   <dbl>   <dbl>   <dbl>
##  1 Asia       Afghan… 2023-09-27  2.26e5       0    18.3    7947       0   5495.
##  2 <NA>       Africa  2023-09-27  1.31e7       0    29.3  259018       0   9203.
##  3 Europe     Albania 2023-09-27  3.34e5       0     0      3604       0 117541.
##  4 Africa     Algeria 2023-09-27  2.72e5       0     0      6881       0   6054.
##  5 Oceania    Americ… 2023-09-27  8.34e3       0     0        34       0 188306.
##  6 Europe     Andorra 2023-09-27  4.80e4       0     0       159       0 601368.
##  7 Africa     Angola  2023-09-27  1.06e5       0     0      1936       0   2977.
##  8 North Ame… Anguil… 2023-09-27  3.90e3       0     0        12       0 245890.
##  9 North Ame… Antigu… 2023-09-27  9.11e3       0     0       146       0  97108.
## 10 South Ame… Argent… 2023-09-27  1.01e7       0     0    130472       0 220930.
## # … with 236 more rows, 5 more variables: new_cases_per_million <dbl>,
## #   total_deaths_per_million <dbl>, new_deaths_per_million <dbl>,
## #   people_fully_vaccinated <dbl>, stringency_index <dbl>, and abbreviated
## #   variable names ¹​location, ²​total_cases, ³​new_cases, ⁴​new_cases_smoothed,
## #   ⁵​total_deaths, ⁶​new_deaths, ⁷​total_cases_per_million
…
