7 時系列データ操作 | エコノミストのためのR
…
年次データ

年次データをas_tsibble()関数でtsibble形式に変換します。周期は1年になります。

# 日付列で昇順に並べ替え
data_tsibble <- data_gdp_pref %>% 
  dplyr::arrange(year)

# key引数にpref_nameを指定してtsibble形式に変換
data_tsibble %<>% 
  tsibble::as_tsibble(index = year, key = pref_name)

data_tsibble

## # A tsibble: 611 x 5 [1Y]
## # Key:       pref_name [47]
##    pref_code pref_name  year gdp_nominal gdp_nominal_pchg
##        <dbl> <chr>     <dbl>       <dbl>            <dbl>
##  1        24 三重県     2006     8391255            NA   
##  2        24 三重県     2007     8586062             2.32
##  3        24 三重県     2008     7858164            -8.48
##  4        24 三重県     2009     7491413            -4.67
##  5        24 三重県     2010     7694240             2.71
##  6        24 三重県     2011     7435912            -3.36
##  7        24 三重県     2012     7626982             2.57
##  8        24 三重県     2013     7919655             3.84
##  9        24 三重県     2014     7671850            -3.13
## 10        24 三重県     2015     7916818             3.19
## # … with 601 more rows
…
四半期データをas_tsibble()関数でtsibble形式に変換します。周期は4四半期になります。

# 日付列で昇順に並べ替え
data_tsibble <- data_gdp_jp %>% 
  dplyr::arrange(日付)

# 日付列をyearquarter型に変換してからtsibble形式に変換
data_tsibble %<>% 
  dplyr::mutate(日付 = 日付 %>% tsibble::yearquarter()) %>% 
  tsibble::as_tsibble(index = 日付)

data_tsibble

## # A tsibble: 113 x 11 [1Q]
##       日付 国内総生産 民間最終…¹ 民間…² 民間企…³ 民間…⁴ 政府最…⁵ 公的…⁶ 公的在…⁷
##      <qtr>      <dbl>      <dbl>  <dbl>    <dbl>  <dbl>    <dbl>  <dbl>    <dbl>
##  1 1994 Q1    446308.    247535. 29812    66259.  4229    71357. 47106.   -542. 
##  2 1994 Q2    443744.    248758. 31118.   66065  -2884.   72244. 48020.    623. 
##  3 1994 Q3    448945     250619. 33628.   65999.  -280.   72789  46303.    806. 
##  4 1994 Q4    447169.    250780  32218.   67029. -1602.   72950. 45589.    853. 
##  5 1995 Q1    452113     252928. 31122.   68648.  2254.   74470. 43642.    -27.7
##  6 1995 Q2    456276.    254884. 30382.   71088   1117.   74611. 45422.    199. 
##  7 1995 Q3    461709.    256356. 29742.   72334.  2106.   75543  48926     173. 
##  8 1995 Q4    462860.    258171. 30431.   73525.  1033.   75789  49134.    235. 
##  9 1996 Q1    466623.    257412. 31806.   73285   1643    76459  51647.    597. 
## 10 1996 Q2    472494.    260510  33278.   75804   2979.   76392. 50920     191. 
## # … with 103 more rows, 2 more variables: 純輸出 <dbl>, 開差 <dbl>, and
## #   abbreviated variable names ¹​民間最終消費支出, ²​民間住宅, ³​民間企業設備,
## #   ⁴​民間在庫変動, ⁵​政府最終消費支出, ⁶​公的固定資本形成, ⁷​公的在庫変動
…
月次データをas_tsibble()関数でtsibble形式に変換します。周期は12カ月になります。

# 日付列で昇順に並べ替え
data_tsibble <- data_labor %>% 
  dplyr::arrange(date)

# date列をyearmonth型に変換してからtsibble形式に変換
data_tsibble %<>%
  dplyr::mutate(date = date %>% tsibble::yearmonth()) %>% 
  tsibble::as_tsibble(index = date)

data_tsibble

## # A tsibble: 256 x 18 [1M]
##        date  総数  農林  建設  製造 情報通信 運輸・郵…¹ 卸・小…² 金融…³ 不動産…⁴
##       <mth> <dbl> <dbl> <dbl> <dbl>    <dbl>      <dbl>    <dbl>  <dbl>    <dbl>
##  1 2002 Jan  6267   224   589  1210      153        331     1131    165       95
##  2 2002 Feb  6248   227   611  1201      156        324     1075    164       96
##  3 2002 Mar  6297   242   628  1238      156        323     1081    161       99
##  4 2002 Apr  6333   278   624  1213      159        315     1121    167       95
##  5 2002 May  6356   307   607  1194      157        322     1134    171       96
##  6 2002 Jun  6373   311   594  1223      159        330     1115    170      108
##  7 2002 Jul  6374   294   622  1199      160        328     1116    180      110
##  8 2002 Aug  6371   288   620  1207      164        326     1085    176      103
##  9 2002 Sep  6353   286   621  1183      171        333     1081    174      100
## 10 2002 Oct  6355   271   642  1176      160        333     1116    172      102
## # … with 246 more rows, 8 more variables: `学術・専門・技術` <dbl>,
## #   `宿泊・飲食` <dbl>, `生活関連・娯楽` <dbl>, 教育 <dbl>, `医療・福祉` <dbl>,
## #   複合サービス <dbl>, その他サービス <dbl>, 公務 <dbl>, and abbreviated
## #   variable names ¹​`運輸・郵便`, ²​`卸・小売`, ³​`金融・保険`,
## #   ⁴​`不動産・物品賃貸`
…
# 日次データのdata_owidから水曜日のデータを抽出して週次データに変換
data_tsibble <- data_owid %>% 
  dplyr::filter(lubridate::wday(date) == 4)

# 日付列で昇順に並べ替え
data_tsibble %<>% 
  dplyr::arrange(date)

data_tsibble %<>% 
  dplyr::mutate(date = date %>% tsibble::yearweek()) %>% 
  tsibble::as_tsibble(index = date, key = location)

data_tsibble

## # A tsibble: 45,516 x 14 [1W]
## # Key:       location [255]
##    continent location       date total…¹ new_c…² new_c…³ total…⁴ new_d…⁵ total…⁶
##    <chr>     <chr>        <week>   <dbl>   <dbl>   <dbl>   <dbl>   <dbl>   <dbl>
##  1 Asia      Afghanist… 2020 W02      NA       0   0          NA       0  NA    
##  2 Asia      Afghanist… 2020 W03      NA       0   0          NA       0  NA    
##  3 Asia      Afghanist… 2020 W04      NA       0   0          NA       0  NA    
##  4 Asia      Afghanist… 2020 W05      NA       0   0          NA       0  NA    
##  5 Asia      Afghanist… 2020 W06      NA       0   0          NA       0  NA    
##  6 Asia      Afghanist… 2020 W07      NA       0   0          NA       0  NA    
##  7 Asia      Afghanist… 2020 W08      NA       0   0          NA       0  NA    
##  8 Asia      Afghanist… 2020 W09       1       1   0.143      NA       0   0.024
##  9 Asia      Afghanist… 2020 W10       1       0   0          NA       0   0.024
## 10 Asia      Afghanist… 2020 W11       4       0   0.429      NA       0   0.097
## # … with 45,506 more rows, 5 more variables: new_cases_per_million <dbl>,
## #   total_deaths_per_million <dbl>, new_deaths_per_million <dbl>,
## #   people_fully_vaccinated <dbl>, stringency_index <dbl>, and abbreviated
## #   variable names ¹​total_cases, ²​new_cases, ³​new_cases_smoothed,
## #   ⁴​total_deaths, ⁵​new_deaths, ⁶​total_cases_per_million
…
日次データ

日次データをas_tsibble()関数でtsibble形式に変換します。周期は7日になります。

# 日付列で昇順に並べ替え
data_tsibble <- data_owid %>% 
  dplyr::arrange(date)

# tsibble形式に変換
data_tsibble %<>% 
  tsibble::as_tsibble(index = date, key = location)
  
data_tsibble

## # A tsibble: 318,421 x 14 [1D]
## # Key:       location [255]
##    continent location date       total…¹ new_c…² new_c…³ total…⁴ new_d…⁵ total…⁶
##    <chr>     <chr>    <date>       <dbl>   <dbl>   <dbl>   <dbl>   <dbl>   <dbl>
##  1 Asia      Afghani… 2020-01-03      NA       0      NA      NA       0      NA
##  2 Asia      Afghani… 2020-01-04      NA       0      NA      NA       0      NA
##  3 Asia      Afghani… 2020-01-05      NA       0      NA      NA       0      NA
##  4 Asia      Afghani… 2020-01-06      NA       0      NA      NA       0      NA
##  5 Asia      Afghani… 2020-01-07      NA       0      NA      NA       0      NA
##  6 Asia      Afghani… 2020-01-08      NA       0       0      NA       0      NA
##  7 Asia      Afghani… 2020-01-09      NA       0       0      NA       0      NA
##  8 Asia      Afghani… 2020-01-10      NA       0       0      NA       0      NA
##  9 Asia      Afghani… 2020-01-11      NA       0       0      NA       0      NA
## 10 Asia      Afghani… 2020-01-12      NA       0       0      NA       0      NA
## # … with 318,411 more rows, 5 more variables: new_cases_per_million <dbl>,
## #   total_deaths_per_million <dbl>, new_deaths_per_million <dbl>,
## #   people_fully_vaccinated <dbl>, stringency_index <dbl>, and abbreviated
## #   variable names ¹​total_cases, ²​new_cases, ³​new_cases_smoothed,
## #   ⁴​total_deaths, ⁵​new_deaths, ⁶​total_cases_per_million
…
data_owid_jp <- data_owid %>% 
  dplyr::select(location, date, new_cases, new_deaths) %>% 
  dplyr::filter(location == "Japan",
                date >= "2022-01-01"
                )

ラグ・リード系列の作成

dplyr::lag()関数とdplyr::leag()関数で、既存の列のラグ・リード系列を作成します。

# 1期ラグの系列を追加
data_owid_jp %>% 
  dplyr::mutate(new_cases_lag = dplyr::lag(new_cases, n = 1)) 

## # A tibble: 530 × 5
##    location date       new_cases new_deaths new_cases_lag
##    <chr>    <date>         <dbl>      <dbl>         <dbl>
##  1 Japan    2022-01-01       504          0            NA
##  2 Japan    2022-01-02       516          2           504
##  3 Japan    2022-01-03       783          1           516
##  4 Japan    2022-01-04      1256          1           783
##  5 Japan    2022-01-05      2506          1          1256
##  6 Japan    2022-01-06      4194          0          2506
##  7 Japan    2022-01-07      5983          2          4194
##  8 Japan    2022-01-08      7930          2          5983
##  9 Japan    2022-01-09      8144          1          7930
## 10 Japan    2022-01-10      6394          2          8144
## # … with 520 more rows

変化率系列の作成

dplyr::lag()関数で、既存の列の変化率系列を作成します。

# 前期比変化率（％表示）の系列を追加
data_owid_jp %>% 
  dplyr::mutate(new_cases_chg = 100 * (new_cases / dplyr::lag(new_cases, n = 1) - 1)) 

## # A tibble: 530 × 5
##    location date       new_cases new_deaths new_cases_chg
##    <chr>    <date>         <dbl>      <dbl>         <dbl>
##  1 Japan    2022-01-01       504          0         NA   
##  2 Japan    2022-01-02       516          2          2.38
##  3 Japan    2022-01-03       783          1         51.7 
##  4 Japan    2022-01-04      1256          1         60.4 
##  5 Japan    2022-01-05      2506          1         99.5 
##  6 Japan    2022-01-06      4194          0         67.4 
##  7 Japan    2022-01-07      5983          2         42.7 
##  8 Japan    2022-01-08      7930          2         32.5 
##  9 Japan    2022-01-09      8144          1          2.70
## 10 Japan    2022-01-10      6394          2        -21.5 
## # … with 520 more rows

移動平均系列の作成

zooパッケージのrollmean()関数で、移動平均系列を作成します。

# 後方7日移動平均の系列を追加
data_owid_jp %>% 
  dplyr::mutate(new_cases_7dma = zoo::rollmean(new_cases, # 移動平均を作成するもとの系列名
                                               k = 7, # 移動平均の期間
                                               na.pad = TRUE, # 系列の先端部分で移動平均を計算できない箇所をNAで埋めるか
                                               align = "right") # left：前方移動平均、center：中央移動平均、right：後方移動平均
                )

## # A tibble: 530 × 5
##    location date       new_cases new_deaths new_cases_7dma
##    <chr>    <date>         <dbl>      <dbl>          <dbl>
##  1 Japan    2022-01-01       504          0            NA 
##  2 Japan    2022-01-02       516          2            NA 
##  3 Japan    2022-01-03       783          1            NA 
##  4 Japan    2022-01-04      1256          1            NA 
##  5 Japan    2022-01-05      2506          1            NA 
##  6 Japan    2022-01-06      4194          0            NA 
##  7 Japan    2022-01-07      5983          2          2249.
##  8 Japan    2022-01-08      7930          2          3310.
##  9 Japan    2022-01-09      8144          1          4399.
## 10 Japan    2022-01-10      6394          2          5201 
## # … with 520 more rows
…
# サンプルデータ（日次）
data_owid_cases_wide <- data_owid %>% 
  dplyr::select(location, date, new_cases) %>% 
  dplyr::filter(date >= "2021-01-01") %>% 
  dplyr::arrange(date) %>% 
  tidyr::pivot_wider(id_cols = "date", names_from = "location", values_from = "new_cases")

日次データを週次データに変換

tidyquant::tq_transmute()関数を使用して日次データを週次データに変換すると、月曜～日曜のデータがFUNに指定した関数で集計され、日曜の日付で記録されます。

data_owid_cases_wide %>% 
  tidyquant::tq_transmute(select = -date, mutate_fun = apply.weekly, FUN = mean, na.rm = TRUE)

## # A tibble: 129 × 256
##    date       Afghanistan Africa Albania Algeria Americ…¹ Andorra Angola Angui…²
##    <date>           <dbl>  <dbl>   <dbl>   <dbl>    <dbl>   <dbl>  <dbl>   <dbl>
##  1 2021-01-03       126.  26506.    526.    283.        0    61     58.3   0.667
##  2 2021-01-10       111.  31139.    522.    251.        0    60     78.3   0    
##  3 2021-01-17        70.7 30384.    608.    243.        0    64.6   87     0    
##  4 2021-01-24        87.3 26347.    574.    251.        0    65.9   86     0    
##  5 2021-01-31        61.1 19323.    814.    250.        0    55.1   59.3   0.286
##  6 2021-02-07        44.6 15378.    962.    247.        0    45.9   40     0    
##  7 2021-02-14        22.4 12412.   1108.    237.        0    36.7   38.1   0.143
##  8 2021-02-21        16   11044.   1011.    179.        0    29.9   24.3   0    
##  9 2021-02-28        15.7 10580.   1046.    171.        0    25.3   40.4   0    
## 10 2021-03-07        19   10119     867.    163.        0    24.3   39     0    
## # … with 119 more rows, 247 more variables: `Antigua and Barbuda` <dbl>,
## #   Argentina <dbl>, Armenia <dbl>, Aruba <dbl>, Asia <dbl>, Australia <dbl>,
## #   Austria <dbl>, Azerbaijan <dbl>, Bahamas <dbl>, Bahrain <dbl>,
## #   Bangladesh <dbl>, Barbados <dbl>, Belarus <dbl>, Belgium <dbl>,
## #   Belize <dbl>, Benin <dbl>, Bermuda <dbl>, Bhutan <dbl>, Bolivia <dbl>,
## #   `Bonaire Sint Eustatius and Saba` <dbl>, `Bosnia and Herzegovina` <dbl>,
## #   Botswana <dbl>, Brazil <dbl>, `British Virgin Islands` <dbl>, …

なお、日曜～土曜のデータを集計し日曜の日付で記録したい場合は、rollmean()関数を使用して前方7日移動平均を計算し、日曜の値を抽出します。

data_owid_cases_wide %>%
  dplyr::mutate(across(-date, rollmean, k = 7, na.pad = TRUE, align = "left")) %>% 
  dplyr::filter(lubridate::wday(date) == 1)

## # A tibble: 128 × 256
##    date       Afghanistan Africa Albania Algeria Americ…¹ Andorra Angola Angui…²
##    <date>           <dbl>  <dbl>   <dbl>   <dbl>    <dbl>   <dbl>  <dbl>   <dbl>
##  1 2021-01-03       116.  29316.    484.    251.        0    53.1   71.1   0.143
##  2 2021-01-10        76.9 31496.    613.    246.        0    65.3   87.6   0    
##  3 2021-01-17        88.7 26499.    560.    249         0    67.1   84.3   0    
##  4 2021-01-24        64.1 20790.    791.    252.        0    60.1   64.9   0.143
##  5 2021-01-31        46   15983.    934.    249.        0    47.9   43.9   0.143
##  6 2021-02-07        20.4 12665.   1112.    239.        0    36.4   37.7   0.143
##  7 2021-02-14        15.3 11295.   1009.    185.        0    31.1   26.3   0    
##  8 2021-02-21        18.1 10772.   1068.    172.        0    25.3   40.1   0    
##  9 2021-02-28        19   10064.    887.    163.        0    25.1   38.1   0    
## 10 2021-03-07        17    9576.    703     151.        0    32.9   34.1   0.143
## # … with 118 more rows, 247 more variables: `Antigua and Barbuda` <dbl>,
## #   Argentina <dbl>, Armenia <dbl>, Aruba <dbl>, Asia <dbl>, Australia <dbl>,
## #   Austria <dbl>, Azerbaijan <dbl>, Bahamas <dbl>, Bahrain <dbl>,
## #   Bangladesh <dbl>, Barbados <dbl>, Belarus <dbl>, Belgium <dbl>,
## #   Belize <dbl>, Benin <dbl>, Bermuda <dbl>, Bhutan <dbl>, Bolivia <dbl>,
## #   `Bonaire Sint Eustatius and Saba` <dbl>, `Bosnia and Herzegovina` <dbl>,
## #   Botswana <dbl>, Brazil <dbl>, `British Virgin Islands` <dbl>, …

日次データを月次データに変換

tidyquant::tq_transmute()関数を使用して日次データを月次データに変換すると、月初～月末のデータがFUNに指定した関数で集計され、月末の日付で記録されます。

data_owid_cases_wide %>% 
  tidyquant::tq_transmute(select = -date, mutate_fun = apply.monthly, FUN = mean, na.rm = TRUE)

## # A tibble: 30 × 256
##    date       Afghanistan Africa Albania Algeria Americ…¹ Andorra Angola Angui…²
##    <date>           <dbl>  <dbl>   <dbl>   <dbl>    <dbl>   <dbl>  <dbl>   <dbl>
##  1 2021-01-31        86.9 26770.   619.     252.   0        61.4    75.8  0.129 
##  2 2021-02-28        24.7 12354.  1031.     208.   0        34.4    35.7  0.0357
##  3 2021-03-31        23.9 10559.   619.     132.   0        35.3    45.2  0.226 
##  4 2021-04-30       110.  11586.   215.     160.   0        41.8   142.   2.2   
##  5 2021-05-31       390.   9274.    46.4    221.   0        16.0   256.   0.581 
##  6 2021-06-30      1561.  21463.     7.2    350.   0         6.9   144.   0     
##  7 2021-07-31       919.  39375.    15.7    999.   0        25.1   128.   0.161 
##  8 2021-08-31       196.  36218.   382.     819.   0        11.4   151.   3.32  
##  9 2021-09-30        61.1 17490.   798.     254.   0.0333    5.9   308.   5.73  
## 10 2021-10-31        33.4  6606.   502.     102.   0.0968    9.90  251.  16.2   
## # … with 20 more rows, 247 more variables: `Antigua and Barbuda` <dbl>,
## #   Argentina <dbl>, Armenia <dbl>, Aruba <dbl>, Asia <dbl>, Australia <dbl>,
## #   Austria <dbl>, Azerbaijan <dbl>, Bahamas <dbl>, Bahrain <dbl>,
## #   Bangladesh <dbl>, Barbados <dbl>, Belarus <dbl>, Belgium <dbl>,
## #   Belize <dbl>, Benin <dbl>, Bermuda <dbl>, Bhutan <dbl>, Bolivia <dbl>,
## #   `Bonaire Sint Eustatius and Saba` <dbl>, `Bosnia and Herzegovina` <dbl>,
## #   Botswana <dbl>, Brazil <dbl>, `British Virgin Islands` <dbl>, …
…
# 時系列インデックスtimeを追加
data %<>% 
  dplyr::mutate(time = seq_along(日付))

# データの内容を確認
data

## # A tibble: 38 × 4
##     日付 名目年率 実質年率  time
##    <dbl>    <dbl>    <dbl> <int>
##  1  1980  250636.  260625.     1
##  2  1981  268831.  271596      2
##  3  1982  282582   280592.     3
##  4  1983  295304.  290478.     4
##  5  1984  313145.  303555.     5
##  6  1985  333686   319441.     6
##  7  1986  350345.  330068.     7
##  8  1987  366339.  345682.     8
##  9  1988  393641.  369137.     9
## 10  1989  421469.  387070.    10
## # … with 28 more rows
ここでは、実質GDPの自然対数に100を掛けた値について線形トレンドを推定します。この操作により、時系列インデックス\(t\)の係数\(\delta\)の推定値は実質GDPのトレンド成長率（％表示）を示すことになります。詳細は、西山 他（2019）P.532を参照してください。

# 実質年率データを対数変換し100を掛けた系列を計算
data_lm <- data %>% 
  dplyr::mutate(ln_real = 100 * log(実質年率))

# 推定期間として1991年から2017年を指定
data_lm %<>% 
  dplyr::filter(日付 >= 1991,
                日付 <= 2017
                )

data_lm

## # A tibble: 27 × 5
##     日付 名目年率 実質年率  time ln_real
##    <dbl>    <dbl>    <dbl> <int>   <dbl>
##  1  1991  482845.  419883     12   1295.
##  2  1992  495056.  423444.    13   1296.
##  3  1993  495291   421251.    14   1295.
##  4  1994  501538.  425434.    15   1296.
##  5  1995  512542.  437100.    16   1299.
##  6  1996  525807.  450650.    17   1302.
##  7  1997  534142.  455499.    18   1303.
##  8  1998  527877.  450360.    19   1302.
##  9  1999  519652.  449225.    20   1302.
## 10  2000  526706   461712.    21   1304.
## # … with 17 more rows
…
# 時系列インデックスtimeを追加
data %<>% 
  dplyr::mutate(time = seq_along(日付))

# データの内容を確認
data

## # A tibble: 38 × 4
##     日付 名目年率 実質年率  time
##    <dbl>    <dbl>    <dbl> <int>
##  1  1980  250636.  260625.     1
##  2  1981  268831.  271596      2
##  3  1982  282582   280592.     3
##  4  1983  295304.  290478.     4
##  5  1984  313145.  303555.     5
##  6  1985  333686   319441.     6
##  7  1986  350345.  330068.     7
##  8  1987  366339.  345682.     8
##  9  1988  393641.  369137.     9
## 10  1989  421469.  387070.    10
## # … with 28 more rows

# 実質年率データを対数変換し100を掛けた系列を計算
data_lm <- data %>% 
  dplyr::mutate(ln_real = 100 * log(実質年率))

# 1990年以前に0、1991年以降に1をとるダミー変数dummyを作成
data_lm %<>% 
  dplyr::mutate(dummy = if_else(日付 >= 1991, 1, 0))

data_lm

## # A tibble: 38 × 6
##     日付 名目年率 実質年率  time ln_real dummy
##    <dbl>    <dbl>    <dbl> <int>   <dbl> <dbl>
##  1  1980  250636.  260625.     1   1247.     0
##  2  1981  268831.  271596      2   1251.     0
##  3  1982  282582   280592.     3   1254.     0
##  4  1983  295304.  290478.     4   1258.     0
##  5  1984  313145.  303555.     5   1262.     0
##  6  1985  333686   319441.     6   1267.     0
##  7  1986  350345.  330068.     7   1271.     0
##  8  1987  366339.  345682.     8   1275.     0
##  9  1988  393641.  369137.     9   1282.     0
## 10  1989  421469.  387070.    10   1287.     0
## # … with 28 more rows
…
